9menu 1.8-1.1 Failed 31.562938s LD_ERROR
apache2-mpm-itk 2.2.6-01-3 Failed 93.814203s UNKNOWN
apt-howto 2.0.2-3 Failed 148.956756s NO_SUCH_FILE
ardour 1:2.4.1-2 Failed 1686.036343s UNKNOWN
ascd 0.13.2-4 OK 37.826815s 
asclock 2.0.12-10 OK 35.443049s 
atlas 3.6.0-21.5 Failed 1108.868562s NO_SUCH_FILE/GCC_ERROR
audiooss 1.0.0-2.1 OK 35.035417s 
autopsy 2.08-2 Unknown 0s 
avscan 3.2.2-openssl-3 Failed 33.175744s GCC_ERROR
awstats 6.7.dfsg-2 Failed 21.69184s UNKNOWN
bcel 5.2-3 OK 81.996742s 
bclock 1.0-12 OK 22.834254s 
bibledit 2.2-2.1 Failed 57.384901s NO_SUCH_FILE
blam 1.8.5-1 Failed 6.9825s APT_GET_FAILED
bristol 0.9.1-13 Failed 32.190412s NO_SUCH_FILE/GCC_ERROR
cacao 0.98-2 Failed 102.749337s GCC_ERROR
came 1.9-3.1 Failed 36.573574s BDEPUNSAT
canna 3.7p3-6 OK 146.99765s 
chimera2 2.0a19-5 OK 40.045131s 
chmsee 1.0.0-1 Failed 7.977933s APT_GET_FAILED
chromium 0.9.12-13 Failed 39.51143s HEADER_NO_SUCH_FILE/NO_SUCH_FILE/GCC_ERROR
collectd 4.3.2-1 Failed 28.743842s APT_GET_FAILED
coolkey 1.1.0-4 Failed 48.607659s HEADER_NO_SUCH_FILE/NO_SUCH_FILE/GCC_ERROR
crip 3.7-3 Failed 16.49634s UNKNOWN
cryopid 0.5.9.1-4 Failed 19.349331s HEADER_NO_SUCH_FILE/NO_SUCH_FILE/GCC_ERROR
cryptsetup 2:1.0.6-2 Failed 190.69984s UNKNOWN
crystalspace 1.2-20080206-1 Failed 1408.924304s UNKNOWN
csound 1:5.08.0.dfsg2-7 Failed 135.345233s UNKNOWN
cstream 2.7.4-2 Failed 20.226684s UNKNOWN
cupsddk 1.2.3-2 Failed 8.157386s APT_GET_FAILED
dag2html 1.01-2 Failed 20.285976s UNKNOWN
debian-edu-doc 1.0~20080515 Failed 173.605083s UNKNOWN
debian-faq 4.0 Failed 229.641257s UNKNOWN
debian-maintainers 1.36 Failed 19.652367s UNKNOWN
debtags-edit 1.3 Failed 63.566752s GCC_ERROR
dictconv 0.2-6 Failed 38.515726s GCC_ERROR
djview4 4.3-3 Failed 56.817674s UNKNOWN
docbook-xsl-saxon 1.00.dfsg.1-4 OK 82.00055s 
dom4j 1.6.1+dfsg-3 Failed 8.493012s APT_GET_FAILED
dovecot 1:1.0.14-1 Failed 29.466275s BDEPUNSAT
drawtiming 0.7-2 Failed 76.964983s LD_ERROR
driftnet 0.1.6-8 OK 59.884505s 
dsdo 1.6.11-2 Failed 20.982007s UNKNOWN
eclipse 3.2.2-6 Failed 17.30619s APT_GET_FAILED
eeepc-modules-2.6 2.6.24-1 Failed 11.88526s APT_GET_FAILED
elfkickers 2.0a-3 Failed 23.975159s HEADER_NO_SUCH_FILE/NO_SUCH_FILE/GCC_ERROR
emile 0.11-2 Failed 7.941909s APT_GET_FAILED
enlightenment 1:0.16.7.2-5.1 Failed 9.624636s APT_GET_FAILED
epplets 0.8.cvs.2005032801-3.2 Failed 6.721124s APT_GET_FAILED
eruby 1.0.5-1 Failed 16.693521s UNKNOWN
esperanza 0.4.0-2 Failed 53.308497s HEADER_NO_SUCH_FILE/NO_SUCH_FILE/GCC_ERROR
etherboot 5.4.3+dfsg-0.1 Failed 21.348905s NO_SUCH_FILE
evolution-rss 0.0.8-2 Failed 7.056164s APT_GET_FAILED
ffmpeg2theora 0.19-1 Failed 29.473473s GCC_ERROR
fireflier 1.1.7-4 Failed 85.293025s GCC_ERROR
floatbg 1.0-26 OK 35.774637s 
freecraft 1:1.18-2.3 Failed 33.411812s NO_SUCH_FILE
ftm 0.0.8 Failed 19.806626s HEADER_NO_SUCH_FILE/NO_SUCH_FILE/GCC_ERROR
fv 3.0-16 Failed 56.710554s UNKNOWN
fvwm1 1.24r-52 OK 66.522564s 
gaim-galago 0.5.0-2 Failed 7.620893s APT_GET_FAILED
galeon 2.0.4-1 Failed 8.302883s APT_GET_FAILED
ganglia-monitor-core 2.5.7-4.1 Failed 40.039753s HEADER_NO_SUCH_FILE/NO_SUCH_FILE/GCC_ERROR
gazpacho 0.7.2-1 Failed 59.976666s PYTHON_TRACEBACK
gdc-4.2 0.25-4.2.3-1 Failed 42.165208s BDEPUNSAT
gecko-sharp2 0.13-1 Failed 8.235958s APT_GET_FAILED
gem 1:0.90.0.1-2 Failed 8.096006s APT_GET_FAILED
ghc-cvs 20060905-1 Failed 138.388641s NO_SUCH_FILE
gibraltar-bootcd 2.1 Failed 8.952937s APT_GET_FAILED
gl-117 1.3.2-1.1 Failed 8.299023s APT_GET_FAILED
glashctl 0.4.2-4 Failed 54.95435s GCC_ERROR
glide 2002.04.10-16 Failed 210.613964s DPKGSHLIB
gluezilla 1.9-1 Failed 7.133438s APT_GET_FAILED
gnade 1.6.1-2 Failed 60.192584s NO_SUCH_FILE
gnat-gps 4.0.1-6 Failed 9.310022s APT_GET_FAILED
gnome-cups-manager 0.31-3 Failed 108.839857s HEADER_NO_SUCH_FILE/NO_SUCH_FILE/GCC_ERROR
gnomesword 2.2.3-1.1 Failed 113.692735s NO_SUCH_FILE
gnumach 2:1.3.99.dfsg.cvs20070809-1 Failed 127.569516s UNKNOWN
gnupod-tools 0.99.6-1 Failed 25.042849s UNKNOWN
gnuradio 3.0.4-2 Failed 114.715296s UNKNOWN
gnustep-base 1.14.1-8 Failed 98.817321s HEADER_NO_SUCH_FILE/NO_SUCH_FILE
gpib 3.2.10-2 Failed 71.077659s NO_SUCH_FILE
gpt 1.0.1.svn20080324-1 Failed 75.57866s GCC_ERROR
greasemonkey 0.6.6.20061017.0-2 Failed 7.662509s APT_GET_FAILED
grmonitor 0.81-4.1 Failed 27.323118s HEADER_NO_SUCH_FILE/NO_SUCH_FILE/GCC_ERROR
groff 1.18.1.1-20 OK 124.633038s 
gst-editor 0.8.0-1 Failed 6.804982s APT_GET_FAILED
gtk2hs 0.9.12.1-1.1 Failed 6.958641s APT_GET_FAILED
gtk-doc 1.10-1 Failed 27.741752s BDEPUNSAT
gtkgo 0.0.10-15 Failed 33.175674s UNKNOWN
gtklookat 0.13.0-6 Failed 7.077448s APT_GET_FAILED
gtk-qt-engine 1:0.8-2 Failed 98.626913s UNKNOWN
gtwitter 1.0~beta-6 Failed 77.490555s COMPIL_FAILED
guile-gnome-platform 2.15.95-2 Failed 229.842239s UNKNOWN
gupnp-av 0.2.1-1 Failed 24.556031s BDEPUNSAT
gupnp-tools 0.6-1 Failed 7.090519s APT_GET_FAILED
haskell98-report 20030706-3 Failed 224.228474s UNKNOWN
haskell98-tutorial 200006-2-1 Failed 40.69717s UNKNOWN
haskelldb-dynamic 0.10-2 Failed 14.662247s APT_GET_FAILED
hdbc-missingh 1.0.1.1 Failed 7.703459s APT_GET_FAILED
henplus 0.9.7.ds1-1 Failed 56.809024s BDEPUNSAT
hex 204-17 OK 28.868886s 
hugin 0.6.1-1.3 Failed 76.000178s GCC_ERROR
iceape 1.1.9-5 Failed 712.996731s LD_ERROR/NO_SUCH_FILE
icedove 2.0.0.14-1 Failed 105.520551s UNKNOWN
iceowl 0.8-3 Failed 138.789429s UNKNOWN
idjc 0.7.5-4 Failed 7.03034s APT_GET_FAILED
illuminator 0.11.0-1 Failed 178.06093s NO_SUCH_FILE
imms 3.1.0~rc4-3 Failed 167.08256s LD_ERROR
ipe 6.0pre30-3 Failed 36.178776s BDEPUNSAT
iproute 20080417-1 Failed 72.963291s NO_SUCH_FILE
iptables 1.4.0-4 Failed 7.86126s APT_GET_FAILED
isdnutils 1:3.9.20060704-3.4 OK 368.728783s 
ivtools 1.1.3-5.4 OK 356.067672s 
jack-tools 0.0.2-5 Failed 28.4762s NO_SUCH_FILE
java-access-bridge 1.22.0-1 Failed 12.744135s APT_GET_FAILED
jpoker 1.0.13-1 Failed 245.988532s UNKNOWN
kazehakase 0.5.4-2 Failed 7.981092s APT_GET_FAILED
kde4libs 4:4.0.2-1 Failed 133.967282s NO_SUCH_FILE
kdebase 4:3.5.9.dfsg.1-2 Unknown 0s 
kdebase-runtime 4:4.0.2-1 Failed 154.647079s NO_SUCH_FILE
kdegames 4:3.5.9-1 Failed 633.521913s NO_SUCH_FILE
kdepim 4:3.5.9-2 Unknown 0s 
kdepimlibs 4:4.0.2-1 Failed 138.625987s NO_SUCH_FILE
kinput2 3.1-10.1 OK 90.387691s 
koules 1.4-17 OK 46.62763s 
kwave 0.7.10-1.1 Failed 364.786157s UNKNOWN
latex-cjk-chinese-arphic 1.18 Failed 1676.094009s UNKNOWN
lavaps 2.7-4.1 Failed 96.685651s HEADER_NO_SUCH_FILE/NO_SUCH_FILE/GCC_ERROR
libapache-admin-config-perl 0.94-1 Failed 20.614237s UNKNOWN
libapache-mod-tsunami 3.0-1.1 Failed 6.888144s APT_GET_FAILED
libaunit 1.03-2 Failed 17.342981s BDEPUNSAT
libb-size-perl 0.09-1 Failed 19.703605s GCC_ERROR
libcgi-formbuilder-perl 3.05.01-3 Failed 22.98575s UNKNOWN
libclass-csv-perl 1.03-2 Failed 19.73064s UNKNOWN
libcoat-persistent-perl 0.100-1 Failed 34.63206s UNKNOWN
libconvert-pem-perl 0.07-2 OK 21.65691s 
libconvert-uulib-perl 1.09-3 Failed 21.301826s UNKNOWN
libdbd-csv-perl 0.2200-4 Failed 19.384613s UNKNOWN
libdevice-cdio-perl 0.2.4-4 Failed 40.168214s UNKNOWN
libept 0.5.20 OK 195.967304s 
libforms1 1.0-7 Failed 97.876877s LD_ERROR/NO_SUCH_FILE
libgd2 2.0.36~rc1~dfsg-2 Failed 39.017933s UNKNOWN
libgearman-client-async-perl 0.94-2.1 Failed 49.611251s NO_SUCH_FILE
libgenerics 1.2.1-2.1 Failed 25.236869s UNKNOWN
libgtkol 1.4.1+dfsg1-1 Failed 58.64506s UNKNOWN
libhtml-wikiconverter-markdown-perl 0.02-1 Failed 24.548946s UNKNOWN
libhtml-wikiconverter-moinmoin-perl 0.53-1 Failed 20.526911s UNKNOWN
libjingle0.3 0.3.11-2 Failed 54.596048s GCC_ERROR
libmail-box-perl 2.082-1 Failed 5.809796s UNKNOWN
libmail-cclient-perl 1.12-7 Failed 26.875049s UNKNOWN
libmodule-install-perl 0.72-1 Unknown 0s 
libnss-lwres 0.93-4.2 Failed 25.442577s NO_SUCH_FILE
libopensync-plugin-opie 0.22-1 Failed 48.444842s GCC_ERROR
libpam-slurm 1.4-2 Failed 7.872849s APT_GET_FAILED
libperldoc-search-perl 0.01-1 Failed 21.678619s UNKNOWN
libprojectm 1.01-6 Failed 37.690917s HEADER_NO_SUCH_FILE/NO_SUCH_FILE/GCC_ERROR
libtest-tap-htmlmatrix-perl 0.04-1 Failed 22.016553s UNKNOWN
libthread-pool-simple-perl 0.23-1 Failed 1667.830861s UNKNOWN
libunix-syslog-perl 1.1-1 Failed 20.13395s UNKNOWN
libvcp-perl 0.9-20050110-1 Failed 20.937104s UNKNOWN
libvrb 0.5.1-4 Failed 24.591182s NO_SUCH_FILE
libwww-perl 5.812-1 Failed 5.582831s UNKNOWN
libxml-csv-perl 0.15-7 Failed 18.702254s UNKNOWN
libxprintapputil 1:1.0.1.xsf1-2 Failed 38.265436s UNKNOWN
libxprintutil 1:1.0.1.xsf1-2 Failed 30.497866s UNKNOWN
liferea 1.4.15-1 Failed 7.166033s APT_GET_FAILED
lilypond 2.10.33-2.2 Failed 2429.549266s PYTHON_TRACEBACK/NO_SUCH_FILE
lincity 1.13.1-7 Failed 71.731706s LD_ERROR/NO_SUCH_FILE
lmemory 0.6c-2 Failed 27.739781s NO_SUCH_FILE
lprng-doc 3.8.A~rc2-2.1 Failed 141.583319s UNKNOWN
lwm 1.2.1-1.1 OK 32.823282s 
m68k-vme-tftplilo 1.1.3-1 Failed 6.548759s APT_GET_FAILED
mailutils 1:1.2+dfsg1-1 OK 465.178452s 
maxima 5.13.0-3.1 Failed 138.09388s NO_SUCH_FILE
migrationtools 47-3 Failed 25.243731s UNKNOWN
mime-support 3.44-1 OK 19.226911s 
mindi-busybox 1.2.1-2 Failed 59.542623s HEADER_NO_SUCH_FILE/NO_SUCH_FILE/GCC_ERROR
mlt++ 0.2.4-1 Failed 6.913833s APT_GET_FAILED
mlt 0.2.4-3 Failed 133.833072s NO_SUCH_FILE/GCC_ERROR
mod-ruby 1.2.6-1.2 Failed 30.523383s UNKNOWN
modxslt 2005072700-2.2 Failed 8.034751s APT_GET_FAILED
moin 1.6.3-1 Failed 36.67912s UNKNOWN
monodevelop 1.0+dfsg-2 Failed 8.810334s APT_GET_FAILED
monodevelop-boo 1.0-2 Failed 8.205898s APT_GET_FAILED
monodevelop-database 1.0+dfsg-2 Failed 6.932823s APT_GET_FAILED
monodevelop-java 1.0-1 Failed 8.136709s APT_GET_FAILED
mono-tools 1.9-1 Failed 7.688296s APT_GET_FAILED
mt-daapd 0.9~r1696-1.3 Failed 50.705478s TOO_MANY_ARGS/NO_SUCH_FILE/GCC_ERROR
mysql-dfsg-5.0 5.0.51a-7 Unknown 0s 
mysql-gui-tools 5.0~rc12-2.2 Failed 117.924426s BDEPUNSAT
nas 1.9.1-2 OK 112.662874s 
netatalk 2.0.3-10 Failed 29.651288s UNKNOWN
netmaze 0.81+jpg0.82-12 OK 33.380819s 
net-telnet-cisco 1.10-4 Failed 18.332769s UNKNOWN
nitpic 0.1-11.1 OK 26.371443s 
noteedit 2.8.1-2.1 Failed 118.454222s UNKNOWN
openbios-sparc 1.0~alpha2+20080106-2 Failed 30.905223s UNKNOWN
openscenegraph 2.4.0-1 Failed 104.496926s UNKNOWN
openssl-blacklist 0.4.2 OK 81.125428s 
openvrml 0.17.5-1 Failed 82.1046s UNKNOWN
orpheus 1.6-1 Failed 80.613923s NO_SUCH_FILE/GCC_ERROR
palo 1.16 Failed 19.360349s GCC_ERROR
pango1.0 1.20.3-1 Failed 137.180755s LD_ERROR
parted 1.7.1-5.1 Failed 65.511566s GCC_ERROR
pathfinder 0.2.4-4 Failed 45.272112s HEADER_NO_SUCH_FILE/NO_SUCH_FILE/GCC_ERROR
perlftlib 1.2-16 Failed 22.379716s GCC_ERROR
perlipq 1.25-1 Failed 18.535836s NO_SUCH_FILE
pgloader 2.3.1-1 Failed 29.549715s UNKNOWN
php-auth 1.6.1-1 Failed 19.688194s NO_SUCH_FILE
php-auth-http 2.1.6-3 Failed 18.765828s NO_SUCH_FILE
php-clamavlib 0.13-1.1 Failed 33.938956s NO_SUCH_FILE/GCC_ERROR
php-compat 1.5.0-3 Failed 18.076338s NO_SUCH_FILE
php-config 1.10.11-1 Failed 19.216697s NO_SUCH_FILE
php-crypt-cbc 0.4-3 Failed 18.499457s NO_SUCH_FILE
php-date 1.4.7-1 Failed 17.793693s NO_SUCH_FILE
php-db 1.7.13-2 Failed 21.571704s NO_SUCH_FILE
php-event-dispatcher 1.0.0-2 Failed 16.236018s NO_SUCH_FILE
php-file 1.3.0-1 Failed 19.07417s NO_SUCH_FILE
php-html-common 1.2.3-2 Failed 18.674316s NO_SUCH_FILE
php-html-template-it 1:1.2.1-2 Failed 19.175423s NO_SUCH_FILE
php-http 1.4.0-1 Failed 16.70214s NO_SUCH_FILE
php-http-request 1.4.2-1 Failed 18.719795s NO_SUCH_FILE
php-http-upload 0.9.1-1 Failed 20.235609s NO_SUCH_FILE
php-image-barcode 1.1.0-1 Failed 19.198778s NO_SUCH_FILE
php-mail 1.1.14-1 Failed 19.383215s NO_SUCH_FILE
php-memcache 3.0.1-1 Failed 22.476323s UNKNOWN
php-net-ipv4 1.3.0-2 Failed 16.593824s NO_SUCH_FILE
php-net-ping 2.4.2-1 Failed 16.884878s NO_SUCH_FILE
php-net-portscan 1.0.2-2 Failed 19.199979s NO_SUCH_FILE
php-net-smartirc 1.0.0-2 Failed 19.254183s NO_SUCH_FILE
php-net-smtp 1.3.1-1 Failed 19.54343s NO_SUCH_FILE
php-net-socket 1.0.8-2 Failed 20.568346s NO_SUCH_FILE
php-net-url 1.0.15-2 Failed 18.786811s NO_SUCH_FILE
php-xml-parser 1.2.8-1 Failed 17.237901s NO_SUCH_FILE
php-xml-rss 0.9.10-3 Failed 19.314207s NO_SUCH_FILE
plotmtv 1.4.4t-10 Failed 56.433702s LD_ERROR/NO_SUCH_FILE
plplot 5.9.0-7 Failed 174.328903s UNKNOWN
postgresql-tablelog 0.4.4-1 Failed 7.53631s APT_GET_FAILED
pperl 0.25-5 Failed 64.683094s NO_SUCH_FILE
proda 1.0-5 Failed 20.489487s GCC_ERROR
projectcenter.app 0.4.3-3 Failed 26.035619s NO_SUCH_FILE
psemu-drive-cdrmooby 2.8+o-2 Failed 48.057724s LD_ERROR
pvm 3.4.5-10 Failed 87.743995s NO_SUCH_FILE/DPKGSHLIB
pybliographer 1.2.9-1 Failed 47.816511s BDEPUNSAT
pyopenssl 0.7-1 Failed 61.139202s NO_SUCH_FILE
pyspi 0.6.1-1.1 Failed 85.341463s NO_SUCH_FILE
python-axiom 0.5.27-1 Failed 54.487673s PYTHON_TRACEBACK
python-kde4 4.0.2-1-1 Failed 97.122177s UNKNOWN
python-minimock 0.8-3 Failed 37.485651s PYTHON_TRACEBACK
qtractor 0.1.3-1 Failed 64.694278s GCC_ERROR
renrot 0.25-1 Failed 22.783131s NO_SUCH_FILE
ruby-gnome2 0.16.0-12 Failed 7.207106s APT_GET_FAILED
sapphire 0.15.8-8 Failed 24.718684s HEADER_NO_SUCH_FILE/NO_SUCH_FILE/GCC_ERROR
sbaz 1.20-2 Failed 281.334153s GCC_ERROR
scala 2.6.1-1lex Failed 12.267476s APT_GET_FAILED
scalapack 1.8.0-2 Failed 2305.264941s DPKGSHLIB
scim-uim 0.2.0-2 Failed 58.330969s HEADER_NO_SUCH_FILE/NO_SUCH_FILE/GCC_ERROR
sciplot 1.36-12 OK 40.081788s 
seetex 2.19-13 OK 41.868495s 
sfs 1:0.8-0+pre20060720.1-1.1 Failed 38.257649s NO_SUCH_FILE
showimg 0.9.5-1.2 Failed 327.084821s GCC_ERROR
ski 1.3.2-2.1 Failed 156.897416s HEADER_NO_SUCH_FILE/NO_SUCH_FILE/GCC_ERROR
slash 2.2.6-8 Failed 6.606359s APT_GET_FAILED
smlnj 110.67-2 Failed 941.557262s NO_SUCH_FILE
soprano 2.0.3-1 Failed 55.296239s NO_SUCH_FILE
spandsp 0.0.4pre18-1 Failed 116.529073s UNKNOWN
spider 1.2-4 OK 28.86682s 
splix 1.0.1-1 Failed 8.0244s APT_GET_FAILED
spplus 1.0-10 Failed 7.501259s APT_GET_FAILED
srtp 1.4.4~dfsg-2 Failed 37.302312s UNKNOWN
star 1.5final-1 OK 84.861501s 
stardict 3.0.1-3 Failed 139.63918s GCC_ERROR
stetic 0.1.0~svn.81552+dfsg-1.2 Failed 100.644021s COMPIL_FAILED
stroq 0.2-5 Failed 63.369273s NO_SUCH_FILE
subcommander 1.2.2-1.1 Failed 9.10716s APT_GET_FAILED
suck 4.3.2-5 Failed 22.600571s UNKNOWN
sugar 0.81.2-1 Failed 71.339752s NO_SUCH_FILE
sugar-artwork 0.79.3-1 Failed 53.293969s UNKNOWN
sugar-base 0.81.1-1 Failed 70.577471s NO_SUCH_FILE
sugar-chat-activity 40-1 Failed 78.415176s NO_SUCH_FILE
sugar-datastore 0.8.1-2 Failed 27.581254s NO_SUCH_FILE
sugar-hulahop 0.4.0-1 Failed 87.681769s NO_SUCH_FILE
sugar-journal-activity 91-1 Failed 92.468774s NO_SUCH_FILE
sugar-pippy-activity 20~git.20080321-3 Failed 90.874111s NO_SUCH_FILE
sugar-presence-service 0.81.1-1 Failed 28.589793s NO_SUCH_FILE
sugar-sharedstate 1~git.20071117-4 Failed 73.898064s NO_SUCH_FILE
sugar-toolkit 0.81.4-2 Failed 77.990186s NO_SUCH_FILE
sugar-web-activity 89-1 Failed 108.273251s NO_SUCH_FILE
svk 2.0.2-1 Failed 6.434271s UNKNOWN
swapd 0.2-10.1 Failed 17.295889s HEADER_NO_SUCH_FILE/NO_SUCH_FILE/GCC_ERROR
sword 1.5.9-8.1 Failed 29.798558s UNKNOWN
swt-gtk 3.3.1-4 Failed 8.425587s APT_GET_FAILED
systemimager 3.6.3dfsg1-3 Failed 251.787533s HEADER_NO_SUCH_FILE/NO_SUCH_FILE/GCC_ERROR
t38modem 0.8.4-2 Failed 35.923477s BDEPUNSAT
taoframework 2.0.0.svn20071027-3 Failed 9.197164s APT_GET_FAILED
tapiir 0.7.1-9 Failed 33.734036s UNKNOWN
tcc 0.9.24-1 OK 33.774336s 
tgif 1:4.1.45-1.1 OK 137.60169s 
tkgate 1.8.7-1 OK 85.093068s 
transfig 1:3.2.5-rel-3.1 Failed 44.644134s BDEPUNSAT
traverso 0.42.0-2 Failed 225.589821s NO_SUCH_FILE/GCC_ERROR
troffcvt 1.04-16 OK 49.390324s 
ttf-fifthhorseman-dkg-handwriting 0.13-1 Failed 61.15798s UNKNOWN
ttf-goudybookletter 0.1-1 Failed 74.295523s UNKNOWN
ttf-okolaks 0.5-1 Failed 13.877483s APT_GET_FAILED
tulip 3.0.0~B6-2.1 Failed 249.230795s HEADER_NO_SUCH_FILE/NO_SUCH_FILE/GCC_ERROR
uclibc 0.9.27-1 Failed 36.033838s NO_SUCH_FILE
ucspi-tcp 1:0.88-2 OK 22.529844s 
umview 0.4a-2 Failed 50.399678s HEADER_NO_SUCH_FILE/NO_SUCH_FILE/GCC_ERROR
user-mode-linux 2.6.24-1um-1 Failed 6.379546s APT_GET_FAILED
vamp-plugin-sdk 1.2-1.1 OK 83.429796s 
varkon 1.18A-3 Failed 7.615306s APT_GET_FAILED
vdr-plugin-dvd 0.3.6~b03-8 Failed 20.916842s HEADER_NO_SUCH_FILE/NO_SUCH_FILE/GCC_ERROR
vrweb 1.5-17 OK 127.720767s 
vtwm 5.4.7-2.1 OK 44.660485s 
wengophone 2.1.2.dfsg0-5 OK 1398.586784s 
windowlab 1.33-4 Failed 31.742727s HEADER_NO_SUCH_FILE/NO_SUCH_FILE/GCC_ERROR
wlassistant 0.5.7-2 Failed 111.676946s PYTHON_TRACEBACK
wmcdplay 1.0beta1-9.1 OK 36.110271s 
wmclock 1.0.12.2-8 OK 33.751429s 
wmifs 1.3b1-18 Failed 13.342276s HEADER_NO_SUCH_FILE/NO_SUCH_FILE/GCC_ERROR
wmii2-doc 1-5 Failed 42.441911s NO_SUCH_FILE
wmii-doc 1:1-7 Failed 41.97415s NO_SUCH_FILE
wmload 0.9.2-10.1 OK 30.658295s 
wmmount 1.0beta2-7 OK 30.225657s 
wmnet 1.05-15 OK 30.482534s 
wmnut 0.62-2 Failed 17.672505s APT_GET_FAILED
wmsensors 1.0.4-6 OK 39.813287s 
wmxmms2 0.6-1 Failed 27.290644s LD_ERROR
wnn6-sdk 1.0.0-14.1 OK 48.101198s 
wsoundprefs 1.1.1-9 OK 37.888041s 
wxwidgets2.6 2.6.3.2.2-2 Failed 1878.189171s HEADER_NO_SUCH_FILE/NO_SUCH_FILE
wxwindows2.4 2.4.5.1.1 Failed 162.666961s NO_SUCH_FILE
x2vnc 1.7.2-1 OK 33.921574s 
x2x 1.27.svn.20060501-3 OK 40.733086s 
xarclock 1.0-11.1 OK 31.661707s 
xbanner 1.31-25.3 OK 37.927474s 
xcal 4.1-18.3 OK 42.362455s 
xcalib 0.8.dfsg1-1 Failed 24.445191s LD_ERROR
xcb 2.4-4 OK 35.860551s 
xdesktopwaves 1.3-2 Failed 28.033985s LD_ERROR
xeji 1.2-13 OK 39.906114s 
xfaces 3.3-26 OK 42.513323s 
xfig 1:3.2.5-rel-2 OK 117.639708s 
xfishtank 2.2-24 Failed 34.646481s LD_ERROR
xhangglider 0.94.0-8 Failed 32.855465s LD_ERROR
xjig 2.4-11.1 OK 26.645438s 
xkeycaps 2.47-3 OK 39.610589s 
xlaby 2.0.1-9 OK 30.127829s 
xmailbox 2.5-11 OK 36.202727s 
xmcd 2.6-19.2 OK 81.862587s 
xmeter 1.15-6.1 OK 38.91558s 
xmove 2.0beta2-8 OK 47.989989s 
xmovie 1.9.12-1.1 Failed 38.830992s TOO_MANY_ARGS/GCC_ERROR
xnecview 1.35-3 OK 63.215994s 
xoids 1.5-16.2 OK 39.545718s 
xonix 1.4-22 OK 42.197189s 
xpaint 2.7.8.1-1.2 OK 61.409943s 
xscavenger 1.4.4-5 Failed 24.267075s LD_ERROR/NO_SUCH_FILE
xscreensaver 5.05-1 OK 481.89808s 
xsd 3.1.0.1-2 OK 1409.30054s 
xsok 1.02-16 OK 41.065481s 
xtel 3.3.0-5.6 Failed 8.178564s APT_GET_FAILED
xtla 1.2.1-1 Failed 8.116848s APT_GET_FAILED
xtoolwait 1.3-6.1 OK 31.760232s 
xtrlock 2.0-12 OK 20.297168s 
xtv 1.1-9 OK 36.053769s 
xvier 1.0-7.3 Failed 22.288335s LD_ERROR
xview 3.2p1.4-21.2 Failed 61.187188s LD_ERROR
xxkb 1.10-2.1 OK 39.304347s 
yaird 0.0.12-25 Failed 26.717272s UNKNOWN
yard 2.2-5 Failed 5.540308s UNKNOWN
zaptel 1:1.4.10.1~dfsg-1 Failed 39.05889s UNKNOWN
zeroc-ice-csharp 3.2.1-3 Failed 7.960705s APT_GET_FAILED
zeroc-icee 1.2.0-4 Failed 7.013827s APT_GET_FAILED
zeroc-icee-java 1.2.0-2 Failed 8.353032s APT_GET_FAILED
zeroc-ice-php 3.2.1-2 Failed 7.757032s APT_GET_FAILED
zeroc-ice-python 3.2.1-4 Failed 7.77218s APT_GET_FAILED
zeroc-ice-ruby 3.2.1-3 Failed 7.769122s APT_GET_FAILED
