4g8 1.0-3 Failed [UNKNOWN] #817344 RECHECK
abinit 7.8.2-3 Failed [UNKNOWN] #835781: abinit: FTBFS: ! LaTeX Error: File `luatex85.sty' not found.
aces3 3.0.8-5 Failed [GCC_ERROR/LD_ERROR] #831164
aclock.app 0.4.0-1 Failed [BUILDDEPS] TODO NEWFAIL
aconnectgui 0.9.0rc2-1-9 Failed [UNKNOWN] #817345 RECHECK
addresses-for-gnustep 0.4.8-2 Failed [BUILDDEPS] TODO NEWFAIL
adun.app 0.81-9 Failed [BUILDDEPS] TODO NEWFAIL
aegis 4.24.3-3 Failed [GCC_ERROR] #811888
aewm++ 1.1.2-5 Failed [UNKNOWN] #831257 RECHECK
affiche 0.6.0-8 Failed [BUILDDEPS] TODO NEWFAIL
afl 2.21b-1 Failed [CLANG_ERROR] #828178
agenda.app 0.42.2-1 Failed [BUILDDEPS] TODO NEWFAIL
aiocoap 0.1+9ae36f4-1 Failed [PYTHON_TRACEBACK] #832872: aiocoap: FTBFS: dh_auto_test: pybuild --test -i python{version} -p 3.5 returned exit code 13 RECHECK
alsamixergui 0.9.0rc2-1-9.1 Failed [UNKNOWN] #817346  RECHECK
ams 2.1.1-1 Failed [GCC_ERROR] #811645
android-platform-development 6.0.1+r16-1 Failed [GCC_ERROR/LD_ERROR] #835695: android-platform-development: FTBFS: ld: cannot find -lETC1
android-tools 5.1.1.r29-2 Failed [GCC_ERROR] #831254 RECHECK
anfo 0.98-4 Failed [UNKNOWN] #835425
anon-proxy 00.05.38+20081230-3 Failed [UNKNOWN] #817347 RECHECK
aplus-fsf 4.22.1-8 Failed [GCC_ERROR] #831169
appstream-generator 0.4.0-1 Failed [GCC_ERROR/LD_ERROR] #835757: appstream-generator: FTBFS: ld: /usr/lib/gcc/x86_64-linux-gnu/6/libgphobos2.a(lt4-curl.o): undefined reference to symbol 'dlclose@@GLIBC_2.2.5'
aptsh 0.0.7+nmu2 Failed [UNKNOWN] #817350 RECHECK
apt-src 0.25.1-0.2 Failed [UNKNOWN] #817351 RECHECK
apwal 0.4.5-1 Failed [UNKNOWN] #817352 RECHECK
arora 0.11.0+qt5+git2014-04-06-1 Failed [GCC_ERROR] #803521 RECHECK
aspell-br 0.50-2-6 Failed [UNKNOWN] #817354 RECHECK
aspell-cy 0.50-3-6 Failed [UNKNOWN] #817355 RECHECK
aspell-el 0.50-3-6 Failed [UNKNOWN] #817356 RECHECK
aspell-ga 0.50-4-4 Failed [UNKNOWN] #817357 RECHECK
aspell-is 0.51-0-4 Failed [UNKNOWN] #782720 RECHECK
aspell-uz 0.6.0-1 Failed [UNKNOWN] #817362 RECHECK
asr-manpages 1.3-6 Failed [UNKNOWN] #817310 RECHECK
assword 0.9-1 Failed [PYTHON_TRACEBACK/PYIMPORT] #825365  RECHECK
asterisk-chan-capi 1.1.6-1 Failed [GCC_ERROR] #707392 RECHECK
asterisk-prompt-se 1.045-1 Failed [UNKNOWN] #817365  RECHECK
attal 1.0~rc2-2 Failed [GCC_ERROR] #831094
auctex 11.88-1.1 Failed [BUILDDEPS] #768724  RECHECK
audacity 2.1.2-1 Failed [GCC_ERROR] #811671
audiolink 0.05-1.2 Failed [UNKNOWN] #817368 RECHECK
audtty 0.1.12-4 Failed [GCC_ERROR] #759825 RECHECK
aufs-tools 1:3.2+20130722-1.1 Failed [GCC_ERROR] #788513 RECHECK
automake-1.15 1:1.15-4 Failed [CONFIGURE_ERROR/TESTS_FAILURES] #827541  RECHECK
avogadro 1.0.3-13.1 Failed [UNKNOWN] #833770
babel 1.4.0.dfsg-8.2 Failed [UNKNOWN] #759848 RECHECK
ball 1.4.3~beta1-1 Failed [TESTS_FAILURES] #830984 RECHECK RECHECK_GUESS
bandwidthcalc 0.2-1 Failed [UNKNOWN] #817372  RECHECK
basic256 0.9.6.69a-1 Failed [UNKNOWN] #746100 RECHECK
batmon.app 0.7-1 Failed [BUILDDEPS] TODO NEWFAIL
bats 0.4.0-1 Failed [TESTS_FAILURES] #802191 RECHECK
bbmail 0.8.3-6 Failed [UNKNOWN] #817374 RECHECK
bbpager 0.4.7-3 Failed [GCC_ERROR/LD_ERROR] #835034
beanbag 1.9.2-1 Failed [UNKNOWN] #804357 RECHECK
beets 1.3.19-1 Failed [PYTHON_TRACEBACK/TESTS_FAILURES] #792060
bibcursed 2.0.0-6 Failed [UNKNOWN] #817375 RECHECK
bicyclerepair 0.9-6.1 Failed [UNKNOWN] #817376  RECHECK
binutils-mingw-w64 6.6 Failed [UNKNOWN] #835035
binutils-msp430 2.22~msp20120406-5 Failed [GCC_ERROR] #811954
bitz-server 1.0.0-2 Failed [GCC_ERROR/LD_ERROR] #835765: bitz-server: FTBFS: liblog4cpp.so: undefined reference to `pthread_key_create'
bookview 3.2.1-1.1 Failed [UNKNOWN] #817381 RECHECK
boost1.58 1.58.0+dfsg-5.1 Failed [GCC_ERROR] #811651
bootchart 0.10~svn407-4.1 Failed [UNKNOWN] #817382 RECHECK
botch 0.17-3 Failed [UNKNOWN] #827977 RECHECK
bppsuite 0.8.0-1+build1 Failed [GCC_ERROR] #825443 RECHECK
brag 1.4.1-2 Failed [UNKNOWN] #817383 RECHECK
brightside 1.4.0-4.1 Failed [UNKNOWN] #817384 RECHECK
bristol 0.60.11-2 Failed [GCC_ERROR] #834180
btfs 2.4-1 Failed [GCC_ERROR] #834250
cadabra 1.39-0.2 Failed [GCC_ERROR] #808634 RECHECK
cairo-5c 1.8.1 Failed [UNKNOWN] #708459 RECHECK
calf 0.0.60-3 Failed [GCC_ERROR] #811883
calligra 1:2.8.5+dfsg-1.2 Failed [BUILDDEPS] #818395 RECHECK RECHECK_GUESS
camera.app 0.8.0-10 Failed [BUILDDEPS] TODO NEWFAIL
cardstories 1.0.6-1.3 Failed [UNKNOWN] #753195 RECHECK
casacore 2.1.0-1 Failed [GCC_ERROR] #831077
cdbackup 0.7.0-5 Failed [UNKNOWN] #817389 RECHECK
cenon.app 4.0.2-1 Failed [BUILDDEPS] TODO NEWFAIL
ceph 0.80.11-1 Failed [GCC_ERROR] #811674
ceres-solver 1.11.0~dfsg0-5 Failed [GCC_ERROR] #835037
charmap.app 0.3~rc1-2 Failed [BUILDDEPS] TODO NEWFAIL
chkconfig 11.4.54.60.1debian1 Failed [TESTS_FAILURES] #834666
chordii 4.3+repack-2 Failed [GCC_ERROR] #811594
chuck 1.2.0.8.dfsg-1.4 Failed [UNKNOWN] #817390 RECHECK
cimg 1.6.5+dfsg-1 Failed [UNKNOWN] #819606 RECHECK
cl-babel 0.3.0+20091229-1 Failed [UNKNOWN] #823044  RECHECK
clex 3.15-1 Failed [UNKNOWN] #817392 RECHECK
clipper 2.1.20130601-2 Failed [GCC_ERROR] #811763
clips 6.24-3 Failed [UNKNOWN] #817394 RECHECK
clips-doc 6.24-2 Failed [UNKNOWN] #817395 RECHECK
cloud-sptheme 1.6-1 Failed [UNKNOWN] #829230  RECHECK
cl-plplot 0.6.0-5 Failed [UNKNOWN] #759904 RECHECK
cl-postoffice 1.8.2.3-4 Failed [UNKNOWN] #817397 RECHECK
cl-rsm-mod 1.4 Failed [UNKNOWN] #817399 RECHECK
cl-salza 0.7.4-1 Failed [UNKNOWN] #817400 RECHECK
clustalo 1.2.2-1 Failed [GCC_ERROR] #835740: clustalo: FTBFS: util-C.h:54:26: error: 'float log2(float)' conflicts with a previous declaration
cmucl 21a-3 Failed [BUILDDEPS] not on amd64 RECHECK
code2html 0.9.1-4 Failed [UNKNOWN] #817404 RECHECK
colord 1.3.2-1 Failed [UNKNOWN] #835758: colord: FTBFS: dh_install: missing files, aborting
compartment 1.1.0-4 Failed [UNKNOWN] #817406 RECHECK
composite 0.006.2+dfsg0-5 Failed [GCC_ERROR] #811844
confetti 20120731-1 Failed [GCC_ERROR] #811578
connect-proxy 1.101-1 Failed [UNKNOWN] #830423: connect-proxy: FTBFS: dpkg-buildpackage: error: dpkg-genchanges gave error exit status 25  RECHECK
connman 1.32-0.1 Failed [UNKNOWN] #835735: connman: FTBFS: dh_install: missing files, aborting
conquest-dicom-server 1.4.17d-1 Failed [GCC_ERROR] #831100
consul-migrate 0.1.0-1 Failed [UNKNOWN] #818121 RECHECK
containerd 0.2.1~ds1-2 Failed [UNKNOWN] #835736: containerd: FTBFS: dh_auto_build: go install -v -p 1 github.com/docker/containerd github.com/docker/containerd/api/grpc/server github.com/docker/containerd/api/grpc/types github.com/docker/containerd/api/http/pprof github.com/docker/containerd/containerd github.com/docker/containerd/containerd-shim github.com/docker/containerd/ctr github.com/docker/containerd/osutils github.com/docker/containerd/runtime github.com/docker/containerd/specs github.com/docker/containerd/supervisor returned exit code 2
coq-float 1:8.4-5 Failed [UNKNOWN] #813596 RECHECK
couchdb 1.4.0-3 Failed [GCC_ERROR] #746053 RECHECK RECHECK_GUESS
cpm 0.32-1.1 Failed [GCC_ERROR/LD_ERROR] #818393 RECHECK
cppcheck 1.74-2 Failed [GCC_ERROR] #835771: cppcheck: FTBFS: lib/library.cpp:95:18: error: 'XML_NO_ERROR' is not a member of 'tinyxml2'
cpp-netlib 0.11.2+dfsg1-2 Failed [TESTS_FAILURES] #834186
crack 5.0a-9.3 Failed [UNKNOWN] #817411 RECHECK
cramfsswap 1.4.1-1 Failed [UNKNOWN] #817412 RECHECK
criticalmass 1:1.0.0-4 Failed [GCC_ERROR] #811816
criu 2.5-2 Failed [UNKNOWN] #835778: criu: FTBFS: make[2]: *** No rule to make target 'images/google/protobuf/descriptor.pb-c.c', needed by 'images/google/protobuf/descriptor.pb-c.d'.  Stop.
cross-binutils 0.26 Failed [UNKNOWN] #802859 RECHECK
cross-toolchain-base-ports 4 Failed [GCC_ERROR] TODO NEWFAIL
crrcsim 0.9.12-6.1 Failed [GCC_ERROR] #811818
crypt++el 2.94-1 Failed [UNKNOWN] #817414 RECHECK
csmash-demosong 1.4 Failed [UNKNOWN] #817415 RECHECK
cthumb 4.2-3 Failed [UNKNOWN] #800207 RECHECK
cura-engine 14.01-2 Failed [GCC_ERROR] #818140 RECHECK
curlpp 0.7.3-6 Failed [GCC_ERROR] #811959
curtain 0.3-1 Failed [CONFIGURE_ERROR] #747785 RECHECK
cutils 1.6-3.1 Failed [UNKNOWN] #817417 RECHECK
cutter-testing-framework 1.2.4-1 Failed [UNKNOWN] #765128 RECHECK
cvc3 2.4.1-5 Failed [GCC_ERROR] #811823
cvs2cl 2.73-1 Failed [UNKNOWN] #817418 RECHECK
cvs-autoreleasedeb 0.12-1 Failed [UNKNOWN] #817419 RECHECK
cvschangelogbuilder 2.4-1 Failed [UNKNOWN] #817420 RECHECK
cyclades-serial-client 0.92 Failed [UNKNOWN] #800212 RECHECK
cynthiune.app 1.0.0-1 Failed [BUILDDEPS] TODO NEWFAIL
dancer-xml 0.8.2.1-3 Failed [UNKNOWN] #817422 RECHECK
dasher 4.11+git20130508.adc653-2 Failed [GCC_ERROR] #811640
datalad 0.2.3-1 Failed [PYTHON_TRACEBACK/TESTS_FAILURES] #835525
datanommer.commands 0.4.6-2 Failed [PYTHON_TRACEBACK] #812650 RECHECK
datanommer.consumer 0.6.1-2 Failed [PYTHON_TRACEBACK] #805660 RECHECK
datanommer.models 0.6.4-2 Failed [PYTHON_TRACEBACK] #804556 RECHECK
deal.ii 8.4.1-2 Failed [BUILDDEPS] TODO NEWFAIL
debaux 0.1.10-1.1 Failed [UNKNOWN] #800283 RECHECK
debbugs 2.4.1.1 Failed [UNKNOWN] #800287 RECHECK
debdry 0.2.1-1 Failed [PYTHON_TRACEBACK/PYIMPORT] #805195 RECHECK
debian-installer-netboot-images 20150422+deb8u4 Failed [UNKNOWN] known FTBFS  RECHECK
denemo 2.0.8-1 Failed [BUILDDEPS] #830347: denemo: FTBFS: build-dependency not installable: lilypond  RECHECK
designate-dashboard 2.0.0-2 Failed [BUILDDEPS] TODO NEWFAIL
desmume 0.9.11-1 Failed [GCC_ERROR] #811691
devtodo 0.1.20-6 Failed [GCC_ERROR] #723964 RECHECK
dh-kpatches 0.99.36+nmu2 Failed [UNKNOWN] #817430  RECHECK
diagnostics 0.3.3-11.1 Failed [TESTS_FAILURES] #812262
dico 2.2-9 Failed [TESTS_FAILURES] #819835 RECHECK
diet 2.8.0-1 Failed [UNKNOWN] #822129 RECHECK
dimbl 0.12-2 Failed [GCC_ERROR] #833905
din 5.2.1-3 Failed [GCC_ERROR] #811778
dipy 0.11.0-1 Failed [GCC_ERROR/PYTHON_TRACEBACK] #830425: dipy: FTBFS: tests failed or directory  RECHECK
distmp3 0.1.9.ds1-4.6 Failed [UNKNOWN] #817432 RECHECK
ditaa 0.10+ds1-1 Failed [GCC_ERROR] #802065 RECHECK
django-compat 1.0.12-1 Failed [PYTHON_TRACEBACK/PYIMPORT/TESTS_FAILURES] #828645
django-conneg 0.9.4-2 Failed [PYTHON_TRACEBACK/TESTS_FAILURES] #801929 RECHECK
django-floppyforms 1.6.2+dfsg-1 Failed [PYTHON_TRACEBACK/TESTS_FAILURES] #828647
django-hijack 2.0.7-2 Failed [PYTHON_TRACEBACK/PYIMPORT/TESTS_FAILURES] #828648
django-ldapdb 0.2.0-1 Failed [PYTHON_TRACEBACK/PYIMPORT/TESTS_FAILURES] #755601 RECHECK RECHECK_GUESS
django-localflavor 1.2-1 Failed [PYTHON_TRACEBACK/TESTS_FAILURES] #828649
django-markupfield 1.4.0-1 Failed [PYTHON_TRACEBACK/TESTS_FAILURES] #828650
django-modeltranslation 0.11-1 Failed [PYTHON_TRACEBACK/TESTS_FAILURES] #834667
django-model-utils 2.4-1 Failed [PYTHON_TRACEBACK/TESTS_FAILURES] #828651
django-polymorphic 0.9.2-1 Failed [PYTHON_TRACEBACK/TESTS_FAILURES] #828654
django-ratelimit 0.4.0+8+gd58c489-3 Failed [PYTHON_TRACEBACK/PYIMPORT/TESTS_FAILURES] #806355 RECHECK
djangorestframework-gis 0.10.1-1 Failed [PYTHON_TRACEBACK/PYIMPORT/TESTS_FAILURES] #834669
django-sitetree 1.5.1-2 Failed [PYTHON_TRACEBACK/TESTS_FAILURES] #828657
django-taggit 0.20.2-1 Failed [PYTHON_TRACEBACK/TESTS_FAILURES] #834668
dlz-ldap-enum 1.0.3-1 Failed [GCC_ERROR] #822388 RECHECK
dmtcp 2.3.1-6 Failed [GCC_ERROR] #808644 RECHECK
docbook-ebnf 1.2~cr1-5.1 Failed [UNKNOWN] #817433  RECHECK
docker.io 1.11.2~ds1-6 Failed [UNKNOWN] #835686: docker.io: FTBFS: .gopath/src/github.com/docker/containerd/api/grpc/types/api.pb.go:1137: cannot use _API_CreateContainer_Handler (type func(interface {}, "golang.org/x/net/context".Context, func(interface {}) error) (interface {}, error)) as type grpc.methodHandler in field value
docker-swarm 1.0.1+dfsg-1 Failed [UNKNOWN] #832849: docker-swarm: FTBFS: dh_auto_build: src/github.com/docker/swarm/api/handlers.go:17:2: cannot find package "github.com/docker/docker/pkg/parsers/filters" RECHECK
doc-linux-pl 2002.06.14-2 Failed [UNKNOWN] #817436 RECHECK
dogtag-pki 10.2.6+git20160317-2 Failed [GCC_ERROR] #811788 RECHECK
dolphin 4:16.04.2-2 Failed [UNKNOWN] #835752: dolphin: FTBFS: dh_install: missing files, aborting
doscan 0.3.3-1 Failed [GCC_ERROR] #811845
dpkg-sig 0.13.1+nmu2 Failed [UNKNOWN] #817437 RECHECK
drgeo 1.1.0-10.2 Failed [BUILDDEPS] #745996 RECHECK
drift 2.2.3-2.3 Failed [UNKNOWN] #807966 RECHECK
dsc-statistics 201203250530-2.1 Failed [GCC_ERROR] #811618
dsh 0.25.10-1.1 Failed [UNKNOWN] #817439  RECHECK
d-shlibs 0.75 Failed [UNKNOWN] #835699: d-shlibs: FTBFS: tests failures
dub 1.0.0-1 Failed [GCC_ERROR/LD_ERROR] #835767: dub: FTBFS: ld: /usr/lib/gcc/x86_64-linux-gnu/6/libgphobos2.a(lt4-curl.o): undefined reference to symbol 'dlclose@@GLIBC_2.2.5'
duma 2.5.15-1.1 Failed [GCC_ERROR] #811887
dvi2dvi 2.0alpha-9.2 Failed [UNKNOWN] #817440  RECHECK
dvidvi 1.0-8etch2 Failed [UNKNOWN] #817441  RECHECK
dvips-fontdata-n2bk 0.0.2001.12.12-3 Failed [UNKNOWN] #817442 RECHECK
eancheck 1.0-1.1 Failed [UNKNOWN] #830462: eancheck: FTBFS: rm: cannot remove 'eancheck.1.gz': No such file or directory  RECHECK
easyh10 1.5-1 Failed [UNKNOWN] #817443 RECHECK
easymp3gain 0.5.0+svn135-6 Failed [UNKNOWN] #818124 RECHECK
echolot 2.1.9-1 Failed [UNKNOWN] #817444 RECHECK
eclipse 3.8.1-8 Failed [GCC_ERROR] #757536 RECHECK
eclipse-cdt 8.6.0-1 Failed [UNKNOWN] #817880 RECHECK
eclipse-egit 3.7.0-1 Failed [UNKNOWN] #813419 RECHECK
eclipse-emf 2.8.3-1 Failed [UNKNOWN] #831230 RECHECK
eclipse-mylyn 3.12.0-1 Failed [UNKNOWN] #809566 RECHECK
eclipse-mylyn-tasks-github 3.3.0-1 Failed [UNKNOWN] #789988 RECHECK
eclipse-pydev 3.9.2-4 Failed [GCC_ERROR] #808485 RECHECK RECHECK_GUESS
eclipse-wtp 3.6.3-1 Failed [UNKNOWN] #787552 RECHECK
eclipse-xsd 2.9.0-1 Failed [UNKNOWN] #832838: eclipse-xsd: FTBFS: Duplicate methods named spliterator with the parameters () and () are inherited from the types List<XSDConcreteComponent> and Collection<XSDConcreteComponent> RECHECK
edenmath.app 1.1.1a-7 Failed [BUILDDEPS] #817445 RECHECK RECHECK_GUESS
efax 1:0.9a-19 Failed [UNKNOWN] #817447 RECHECK
eficas 6.4.0-1-1.1 Failed [UNKNOWN] #830424: eficas: FTBFS: dh_listpackages: Compatibility levels before 5 are no longer supported (level 1 requested)  RECHECK
elasticsearch 1.7.5-1 Failed [UNKNOWN] #834080
elkcode 2.3.22-1 Failed [GCC_ERROR/LD_ERROR] #825934 RECHECK
elmerfem 6.1.0.svn.5396.dfsg2-4 Failed [CONFIGURE_ERROR] #754713 RECHECK
enigma 1.20-dfsg.1-2 Failed [GCC_ERROR] #811826
enscribe 0.1.0-1.1 Failed [UNKNOWN] #817448 RECHECK
epwutil 1.1-8.1 Failed [UNKNOWN] #817449 RECHECK
etcd 2.3.7+dfsg-4 Failed [UNKNOWN] #835750: etcd: FTBFS: dh_auto_build: go install -v -p 1 github.com/coreos/etcd github.com/coreos/etcd/auth github.com/coreos/etcd/client github.com/coreos/etcd/compactor github.com/coreos/etcd/discovery github.com/coreos/etcd/error github.com/coreos/etcd/etcdctl github.com/coreos/etcd/etcdctl/command github.com/coreos/etcd/etcdmain github.com/coreos/etcd/etcdserver github.com/coreos/etcd/etcdserver/api/v3rpc github.com/coreos/etcd/etcdserver/api/v3rpc/rpctypes github.com/coreos/etcd/etcdserver/auth github.com/coreos/etcd/etcdserver/etcdhttp github.com/coreos/etcd/etcdserver/etcdhttp/httptypes github.com/coreos/etcd/etcdserver/etcdserverpb github.com/coreos/etcd/etcdserver/stats github.com/coreos/etcd/lease github.com/coreos/etcd/lease/leasehttp github.com/coreos/etcd/lease/leasepb github.com/coreos/etcd/pkg/adt github.com/coreos/etcd/pkg/contention github.com/coreos/etcd/pkg/cors github.com/coreos/etcd/pkg/crc github.com/coreos/etcd/pkg/fileutil github.com/coreos/etcd/pkg/flags github.com/coreos/etcd/pkg/httputil github.com/coreos/etcd/pkg/idutil github.com/coreos/etcd/pkg/ioutil github.com/coreos/etcd/pkg/logutil github.com/coreos/etcd/pkg/mock/mockstorage github.com/coreos/etcd/pkg/mock/mockstore github.com/coreos/etcd/pkg/mock/mockwait github.com/coreos/etcd/pkg/netutil github.com/coreos/etcd/pkg/osutil github.com/coreos/etcd/pkg/pathutil github.com/coreos/etcd/pkg/pbutil github.com/coreos/etcd/pkg/runtime github.com/coreos/etcd/pkg/schedule github.com/coreos/etcd/pkg/testutil github.com/coreos/etcd/pkg/transport github.com/coreos/etcd/pkg/types github.com/coreos/etcd/pkg/wait github.com/coreos/etcd/proxy github.com/coreos/etcd/raft github.com/coreos/etcd/raft/raftpb github.com/coreos/etcd/rafthttp github.com/coreos/etcd/snap github.com/coreos/etcd/snap/snappb github.com/coreos/etcd/storage github.com/coreos/etcd/storage/backend github.com/coreos/etcd/storage/storagepb github.com/coreos/etcd/store github.com/coreos/etcd/version github.com/coreos/etcd/wal github.com/coreos/etcd/wal/walpb returned exit code 2
etoile 0+20080616+dfsg-2 Failed [BUILDDEPS] TODO NEWFAIL
evernote-mode 0.41-3.1 Failed [UNKNOWN] #754009 RECHECK
evil-el 1.2.12-1 Failed [TESTS_FAILURES] #829299 RECHECK
evolution-data-server 3.20.5-1 Failed [GCC_ERROR] #835706: evolution-data-server: FTBFS: conftest.c:17:28: fatal error: ac_nonexistent.h: No such file or directory
fail2ban 0.9.5-1 Failed [PYTHON_TRACEBACK/TESTS_FAILURES] #835707: fail2ban: FTBFS: Tests failures
fam 2.7.0-17.1 Failed [UNKNOWN] #816995  RECHECK
fauhdlc 20130704-1 Failed [GCC_ERROR] #835106
fb-music-high 0.1.2 Failed [UNKNOWN] #817450 RECHECK
fbpager 0.1.5~git20090221.1.8e0927e6-1.1 Failed [UNKNOWN] #817451 RECHECK
fedmsg 0.9.3-2 Failed [TESTS_FAILURES] #808654 RECHECK
fedmsg-meta-fedora-infrastructure 0.2.18-1 Failed [PYTHON_TRACEBACK] #797239 RECHECK
festvox-czech-dita 1.0.0-2 Failed [UNKNOWN] #750344 RECHECK
festvox-czech-krb 1.0.0-2 Failed [UNKNOWN] #753189 RECHECK
festvox-czech-machac 1.0.0-2 Failed [UNKNOWN] #753179 RECHECK
fflas-ffpack 2.2.1-2 Failed [BUILDDEPS] #835759: fflas-ffpack: FTBFS: unsatisfiable build-dependency: libgivaro-dev (< 4.0.2) but 4.0.2-1 is to be installed
fife 0.3.5-2 Failed [GCC_ERROR] #811858
firefox-esr 45.3.0esr-1 Failed [GCC_ERROR] #822715
fityk 1.2.1-0.1 Failed [GCC_ERROR] #811800
flickrfs 1.3.9.1-9.2 Failed [UNKNOWN] #750288 RECHECK
font-manager 0.5.7-4 Failed [GCC_ERROR] #830469: font-manager: FTBFS: src/lib/fm-pyfontutils.c:28:22: fatal error: ft2build.h: No such file or directory  RECHECK
fontmatrix 0.6.0+svn20110930-1.1 Failed [GCC_ERROR] #799311 RECHECK
fookb 3.0-3 Failed [UNKNOWN] #817456 RECHECK
fprobe-ulog 1.1-7.3 Failed [GCC_ERROR] #785518 RECHECK
fqterm 0.9.6.10-1.1 Failed [GCC_ERROR] #811872
free42-nologo 1.4.77-1.1 Failed [GCC_ERROR] #811760
freefem3d 1.0pre10-3.3 Failed [UNKNOWN] #817460 RECHECK
freefoam 0.1.0+dfsg+1-3 Failed [GCC_ERROR/LD_ERROR] #831247 RECHECK
freehdl 0.0.8-2.1 Failed [GCC_ERROR] #811804
freeipa 4.0.5-6 Failed [CONFIGURE_ERROR] #809271 RECHECK
freepwing 1.5-1 Failed [UNKNOWN] #817461 RECHECK
freetable 2.3-4.1 Failed [UNKNOWN] #817463  RECHECK
freewheeling 0.6-2 Failed [GCC_ERROR] #831163
frog 0.12.20-1 Failed [GCC_ERROR] #834558
fslview 4.0.1-6 Failed [BUILDDEPS] #749531 RECHECK
ftp.app 0.3-1 Failed [BUILDDEPS] TODO NEWFAIL
funny-manpages 1.3-5.1 Failed [UNKNOWN] #817332 RECHECK
fusesmb 0.8.7-1.3 Failed [UNKNOWN] #817465 RECHECK
fw4spl 0.9.2-3 Failed [BUILDDEPS] #820632 RECHECK
gaim-librvp 0.9.5-3 Failed [UNKNOWN] #817467 RECHECK
galib 2.4.7-3.1 Failed [GCC_ERROR] #812053
ganv 1.4.2~dfsg0-1.1 Failed [GCC_ERROR] #833969
gargoyle-free 2011.1a-3 Failed [GCC_ERROR] #812058
garlic-doc 1.6-1 Failed [UNKNOWN] #817468 RECHECK
gav-themes 0.7.3-2 Failed [UNKNOWN] #817470 RECHECK
gazebo 7.3.0+dfsg-2 Failed [GCC_ERROR] #835427
gcc-5-cross 24 Failed [UNKNOWN] #835777: gcc-5-cross: FTBFS: patch fails to apply
gcc-5-cross-ports 10 Failed [UNKNOWN] #835692: gcc-5-cross-ports: FTBFS: patches fail to apply
gcc-6-cross 12 Failed [UNKNOWN] #835732: gcc-6-cross: FTBFS: patch fails to apply
gcc-6-cross-ports 9 Failed [UNKNOWN] #835714: gcc-6-cross-ports: FTBFS: patch fails to apply
gcc-arm-none-eabi 15:4.9.3+svn231177-1 Failed [GCC_ERROR] #831142
gcc-avr 1:4.9.2+Atmel3.5.0-1 Failed [GCC_ERROR] #831174
gcc-msp430 4.6.3~mspgcc-20120406-7 Failed [GCC_ERROR] #777863 RECHECK
gcc-snapshot 20160817-1 Failed [GCC_ERROR/BUILD_TIMEOUT] TODO NEWFAIL
gco 0.5.0-6.2 Failed [UNKNOWN] #817471 RECHECK
gcolor2 0.4-2.1 Failed [UNKNOWN] #817472  RECHECK
gcr 3.20.0-2 Failed [TESTS_FAILURES] #835737: gcr: FTBFS: Tests failures
gdb-msp430 7.2a~mspgcc-20111205-3 Failed [GCC_ERROR] #777867 RECHECK
gdebi 0.9.5.7 Failed [PYTHON_TRACEBACK/TESTS_FAILURES] #820693  RECHECK
gdeskcal 0.57.1-2.2 Failed [UNKNOWN] #817473 RECHECK
gearhead 1.302-1 Failed [UNKNOWN] #831797
geki3 1.0.3-8 Failed [UNKNOWN] #817474  RECHECK
gemanx-gtk2 0.1.0.3-2 Failed [GCC_ERROR] #811755
genparse 0.9.1-1 Failed [SEGMENTATION_FAULT] #802190 RECHECK
ggcov 0.9-11 Failed [TESTS_FAILURES] #835728: ggcov: FTBFS: Tests failures
git-annex 6.20160719-1 Failed [BUILDDEPS] TODO NEWFAIL
git-build-recipe 0.3.2 Failed [PYTHON_TRACEBACK/TESTS_FAILURES] #835526
git-flow 1.10.0-1 Failed [BUILDDEPS] TODO NEWFAIL
github-backup 1.20160522-1 Failed [BUILDDEPS] TODO NEWFAIL
gitit 0.12.1.1+dfsg-2 Failed [BUILDDEPS] TODO NEWFAIL
git-remote-hg 0.3-1 Failed [TESTS_FAILURES] #833907
git-repair 1.20151215-1 Failed [UNKNOWN] #826389 RECHECK
gjiten 2.6-2.3 Failed [UNKNOWN] #817334 RECHECK
gkermit 1.0-9 Failed [UNKNOWN] #817475 RECHECK
gkrellkam 2.0.0-1.1 Failed [UNKNOWN] #800215 RECHECK
gkrellm-leds 0.8.0-1.2 Failed [UNKNOWN] #817476 RECHECK
gkrellm-mailwatch 2.4.3-1 Failed [UNKNOWN] #817337 RECHECK
gkrellmoon 0.6-5 Failed [UNKNOWN] #817477 RECHECK
gkrellm-radio 2.0.4-1.1 Failed [UNKNOWN] #817339 RECHECK
gkrellm-volume 2.1.13-1 Failed [UNKNOWN] #817340 RECHECK
gkrellmwireless 2.0.3-1 Failed [UNKNOWN] #817341 RECHECK
gkrellshoot 0.4.4-1 Failed [UNKNOWN] #817478 RECHECK
gkrellweather 2.0.8-2 Failed [UNKNOWN] #817479 RECHECK
gkremldk 0.9.7-2.1 Failed [UNKNOWN] #817480 RECHECK
glob2 0.9.4.4-2.4 Failed [GCC_ERROR] #812167
gmt-tutorial 3.4-1.1 Failed [UNKNOWN] #817343 RECHECK
gnome-chemistry-utils 0.14.10-2 Failed [GCC_ERROR] #812164
gnome-color-chooser 0.2.5-1 Failed [UNKNOWN] #817295 RECHECK
gnome-keyring 3.20.0-2 Failed [TESTS_FAILURES] #832852: gnome-keyring: FTBFS: Tests failures RECHECK
gnuchess-book 1.02-1 Failed [BUILD_TIMEOUT] #834670
gnudoq 0.94-2.1 Failed [UNKNOWN] #817484 RECHECK
gnuift 0.1.14-12.1 Failed [GCC_ERROR] #811899
gnumach 2:1.7+git20160809-2 Failed [BUILDDEPS] not on amd64 RECHECK RECHECK_VERSION
gnumail 1.2.2-1 Failed [BUILDDEPS] TODO NEWFAIL
gnustep-back 0.25.0-2 Failed [BUILDDEPS] TODO NEWFAIL
gnustep-dl2 0.12.0-15 Failed [BUILDDEPS] TODO NEWFAIL
gnustep-examples 1:1.4.0-1 Failed [BUILDDEPS] TODO NEWFAIL
golang-codegangsta-cli 0.0~git20151221-1 Failed [UNKNOWN] #835398
golang-git2go 0.0~git20150731.0.ed62fda-1 Failed [UNKNOWN] #799454 RECHECK
golang-github-armon-gomdb 0.0~git20150106.0.151f2e0-1 Failed [UNKNOWN] #819638 RECHECK
golang-github-boltdb-bolt 1.2.1-1 Failed [TESTS_FAILURES] #832834
golang-github-digitalocean-godo 0.9.0-1 Failed [UNKNOWN] #835748: golang-github-digitalocean-godo: FTBFS: dh_auto_test: go test -v -p 1 github.com/digitalocean/godo github.com/digitalocean/godo/util returned exit code 1
golang-github-docker-go 0.0~git20160303.0.d30aec9-1 Failed [UNKNOWN] #835715: golang-github-docker-go: FTBFS: patches fail to apply
golang-github-hashicorp-raft-mdb 0.0~git20150806.0.55f2947-1 Failed [UNKNOWN] #819640 RECHECK
golang-github-jfrazelle-go 0.0~git20150906.0.a8e3e21-1 Failed [UNKNOWN] #835779: golang-github-jfrazelle-go: FTBFS: patches fail to apply
golang-github-jinzhu-gorm 0.0~git20151012.0.20e37a0-1 Failed [UNKNOWN] #819641 RECHECK
golang-github-spf13-pflag 0.0~git20160427.0.cb88ea7-1 Failed [UNKNOWN] #835721: golang-github-spf13-pflag: FTBFS: dh_auto_test: go test -v -p 1 github.com/spf13/pflag returned exit code 1
golang-gocheck 0.0~bzr20131118+85-2 Failed [UNKNOWN] #789991  RECHECK
golang-golang-x-tools 1:0.0~git20160315.0.f42ec61-2 Failed [TESTS_FAILURES] #835760: golang-golang-x-tools: FTBFS: Tests failures
golang-google-cloud 0.0~git20160413-1 Failed [UNKNOWN] #835742: golang-google-cloud: FTBFS: dh_auto_build: go install -v -p 1 google.golang.org/cloud google.golang.org/cloud/bigquery google.golang.org/cloud/bigtable google.golang.org/cloud/bigtable/bttest google.golang.org/cloud/bigtable/cmd/cbt google.golang.org/cloud/bigtable/cmd/loadtest google.golang.org/cloud/bigtable/internal/cbtrc google.golang.org/cloud/bigtable/internal/cluster_data_proto google.golang.org/cloud/bigtable/internal/cluster_service_proto google.golang.org/cloud/bigtable/internal/data_proto google.golang.org/cloud/bigtable/internal/duration_proto google.golang.org/cloud/bigtable/internal/empty google.golang.org/cloud/bigtable/internal/service_proto google.golang.org/cloud/bigtable/internal/table_data_proto google.golang.org/cloud/bigtable/internal/table_service_proto google.golang.org/cloud/compute/metadata google.golang.org/cloud/container google.golang.org/cloud/datastore google.golang.org/cloud/datastore/internal/proto google.golang.org/cloud/datastore/internal/type_proto google.golang.org/cloud/examples/bigquery/concat_table google.golang.org/cloud/examples/bigquery/load google.golang.org/cloud/examples/bigquery/query google.golang.org/cloud/examples/bigquery/read google.golang.org/cloud/examples/bigtable/bigtable-hello google.golang.org/cloud/examples/bigtable/search google.golang.org/cloud/examples/pubsub/cmdline google.golang.org/cloud/examples/pubsub/consumer google.golang.org/cloud/examples/storage/appengine google.golang.org/cloud/examples/storage/appenginevm google.golang.org/cloud/internal google.golang.org/cloud/internal/opts google.golang.org/cloud/internal/testutil google.golang.org/cloud/internal/transport google.golang.org/cloud/logging google.golang.org/cloud/pubsub google.golang.org/cloud/storage returned exit code 2
golang-go.tools 0.0~hg20140703-4 Failed [UNKNOWN] #835780: golang-go.tools: FTBFS: dh_auto_build: go install -v -p 1 code.google.com/p/go.tools/astutil code.google.com/p/go.tools/blog code.google.com/p/go.tools/blog/atom code.google.com/p/go.tools/cmd/benchcmp code.google.com/p/go.tools/cmd/eg code.google.com/p/go.tools/cmd/godex code.google.com/p/go.tools/cmd/goimports code.google.com/p/go.tools/cmd/gotype code.google.com/p/go.tools/cmd/html2article code.google.com/p/go.tools/cmd/oracle code.google.com/p/go.tools/cmd/present code.google.com/p/go.tools/cmd/ssadump code.google.com/p/go.tools/cmd/vet/whitelist code.google.com/p/go.tools/container/intsets code.google.com/p/go.tools/cover code.google.com/p/go.tools/dashboard/builder code.google.com/p/go.tools/dashboard/updater code.google.com/p/go.tools/go/callgraph code.google.com/p/go.tools/go/exact code.google.com/p/go.tools/go/gccgoimporter code.google.com/p/go.tools/go/gcimporter code.google.com/p/go.tools/go/importer code.google.com/p/go.tools/go/loader code.google.com/p/go.tools/go/pointer code.google.com/p/go.tools/go/ssa code.google.com/p/go.tools/go/ssa/interp code.google.com/p/go.tools/go/ssa/ssautil code.google.com/p/go.tools/go/types code.google.com/p/go.tools/go/types/typeutil code.google.com/p/go.tools/go/vcs code.google.com/p/go.tools/godoc code.google.com/p/go.tools/godoc/analysis code.google.com/p/go.tools/godoc/redirect code.google.com/p/go.tools/godoc/static code.google.com/p/go.tools/godoc/util code.google.com/p/go.tools/godoc/vfs code.google.com/p/go.tools/godoc/vfs/gatefs code.google.com/p/go.tools/godoc/vfs/httpfs code.google.com/p/go.tools/godoc/vfs/mapfs code.google.com/p/go.tools/godoc/vfs/zipfs code.google.com/p/go.tools/imports code.google.com/p/go.tools/oracle code.google.com/p/go.tools/oracle/serial code.google.com/p/go.tools/playground code.google.com/p/go.tools/playground/socket code.google.com/p/go.tools/present code.google.com/p/go.tools/refactor/eg returned exit code 1
golang-go-xdg 0~bzr20140219-1 Failed [UNKNOWN] #830446: golang-go-xdg: FTBFS: dh_auto_test: go test -v launchpad.net/go-xdg/v0 returned exit code 1  RECHECK
golang-goyaml 0.0~bzr50-1 Failed [UNKNOWN] #835613
golang-rrd 0.0~git20131112-1 Failed [GCC_ERROR/LD_ERROR] #830449: golang-rrd: FTBFS: ld: cannot find -lrrd_th  RECHECK
golang-x-text 0.0~git20160606.0.a4d77b4-1 Failed [UNKNOWN] #835698: golang-x-text: FTBFS: dh_auto_test: go test -v -p 1 golang.org/x/text golang.org/x/text/cases golang.org/x/text/collate golang.org/x/text/collate/build golang.org/x/text/collate/colltab golang.org/x/text/currency golang.org/x/text/encoding golang.org/x/text/encoding/charmap golang.org/x/text/encoding/htmlindex golang.org/x/text/encoding/ianaindex golang.org/x/text/encoding/internal golang.org/x/text/encoding/internal/identifier golang.org/x/text/encoding/japanese golang.org/x/text/encoding/korean golang.org/x/text/encoding/simplifiedchinese golang.org/x/text/encoding/traditionalchinese golang.org/x/text/encoding/unicode golang.org/x/text/internal golang.org/x/text/internal/colltab golang.org/x/text/internal/format golang.org/x/text/internal/format/plural golang.org/x/text/internal/gen golang.org/x/text/internal/number golang.org/x/text/internal/stringset golang.org/x/text/internal/tag golang.org/x/text/internal/testtext golang.org/x/text/internal/triegen golang.org/x/text/internal/ucd golang.org/x/text/internal/utf8internal golang.org/x/text/language golang.org/x/text/language/display golang.org/x/text/message golang.org/x/text/runes golang.org/x/text/search golang.org/x/text/secure golang.org/x/text/secure/bidirule golang.org/x/text/secure/precis golang.org/x/text/transform golang.org/x/text/unicode golang.org/x/text/unicode/bidi golang.org/x/text/unicode/cldr golang.org/x/text/unicode/norm golang.org/x/text/unicode/rangetable golang.org/x/text/width returned exit code 1
goldencheetah 4.0.0~DEV1607-1 Failed [BUILDDEPS] #835769: goldencheetah: FTBFS: build-dependency not installable: libnss3-1d
golint 0.0+git20150623.7b7f436-1 Failed [UNKNOWN] #835685: golint: FTBFS: dh_auto_test: go test -v -p 1 github.com/golang/lint github.com/golang/lint/golint returned exit code 1
gomoku.app 1.2.9-2 Failed [BUILDDEPS] TODO NEWFAIL
google-auth-library-php 0.6-1 Failed [BUILDDEPS] #817754
gopacket 1.1.11-2 Failed [UNKNOWN] #830433: gopacket: FTBFS: dh_auto_test: go test -v github.com/google/gopacket github.com/google/gopacket/afpacket github.com/google/gopacket/bytediff github.com/google/gopacket/dumpcommand github.com/google/gopacket/ip4defrag github.com/google/gopacket/layers github.com/google/gopacket/macs github.com/google/gopacket/pcap github.com/google/gopacket/pcapgo github.com/google/gopacket/pfring github.com/google/gopacket/routing github.com/google/gopacket/tcpassembly github.com/google/gopacket/tcpassembly/tcpreader returned exit code 1  RECHECK
gorm.app 1.2.20-2 Failed [BUILDDEPS] TODO NEWFAIL
gotmail 0.9.0-1 Failed [UNKNOWN] #817486 RECHECK
gpsd 3.16-2 Failed [GCC_ERROR] #830993
gpsshogi 0.6.0-3+nmu2 Failed [GCC_ERROR] #811689
grafana 2.6.0+dfsg-3 Failed [UNKNOWN] #828814  RECHECK
grail 3.1.0-2 Failed [GCC_ERROR] #811588
granule 1.4.0-7-5 Failed [GCC_ERROR] #805203 RECHECK
graphite-api 1.1.3-1 Failed [PYIMPORT] #828715  RECHECK
gri 2.12.23-9 Failed [UNKNOWN] #818449 RECHECK
gridlock.app 1.10-4 Failed [BUILDDEPS] TODO NEWFAIL
grpc 0.12.0-1 Failed [GCC_ERROR] #831250 RECHECK RECHECK_GUESS
gr-radar 0.0.0.20160126-1 Failed [GCC_ERROR] #834292
grr.app 1.0-1 Failed [BUILDDEPS] TODO NEWFAIL
gsfonts 1:8.11+urwcyr1.0.7~pre44-4.2 Failed [UNKNOWN] #817488  RECHECK
gtamsanalyzer.app 0.42-7 Failed [BUILDDEPS] TODO NEWFAIL
gtest 1.7.0-4 Failed [PYTHON_TRACEBACK/TESTS_FAILURES] #823447
gtk2-engines-wonderland 1.0-10 Failed [UNKNOWN] #818513 RECHECK
gtkimageview 1.6.4+dfsg-1 Failed [GCC_ERROR] #831117
gtkterm 0.99.7~rc1-0.2 Failed [UNKNOWN] #817489 RECHECK
gts 0.7.6+darcs121130-1.2 Failed [TESTS_FAILURES] #831245 RECHECK
guacamole-client 0.8.3-1.2 Failed [UNKNOWN] #832846: guacamole-client: FTBFS: Could not resolve dependencies for project org.glyptodon.guacamole:guacamole-common:jar:0.8.0 RECHECK
guacamole-server 0.8.3-2 Failed [GCC_ERROR] #827300  RECHECK
guile-gnome-platform 2.16.2-2 Failed [UNKNOWN] #830406: guile-gnome-platform: FTBFS: tests failed  RECHECK
gurgitate-mail 1.10.0-1 Failed [UNKNOWN] #805158 RECHECK
gworkspace 0.9.3-1 Failed [BUILDDEPS] TODO NEWFAIL
hashcash 1.21-1.1 Failed [UNKNOWN] #817490 RECHECK
haskell-authenticate 1.3.3.2-1 Failed [BUILDDEPS] TODO NEWFAIL
haskell-aws 0.13.2-2 Failed [BUILDDEPS] TODO NEWFAIL
haskell-blogliterately 0.8.4-1 Failed [BUILDDEPS] TODO NEWFAIL
haskell-classy-prelude-yesod 0.12.8-1 Failed [BUILDDEPS] TODO NEWFAIL
haskell-fb 1.0.13-1 Failed [BUILDDEPS] TODO NEWFAIL
haskell-gloss 1.10.1.1-1 Failed [BUILDDEPS] TODO NEWFAIL
haskell-gloss-rendering 1.10.1.1-1 Failed [BUILDDEPS] TODO NEWFAIL
haskell-hakyll 4.8.3.2-1 Failed [BUILDDEPS] TODO NEWFAIL
haskell-happstack-authenticate 2.3.4.3-1 Failed [BUILDDEPS] TODO NEWFAIL
haskell-hledger-ui 0.27.4-1 Failed [BUILDDEPS] TODO NEWFAIL
haskell-hledger-web 0.27-1 Failed [BUILDDEPS] TODO NEWFAIL
haskell-hoauth2 0.5.4.0-1 Failed [BUILDDEPS] TODO NEWFAIL
haskell-http-conduit 2.1.11-1 Failed [BUILDDEPS] TODO NEWFAIL
haskell-mime-mail-ses 0.3.2.2-3 Failed [BUILDDEPS] TODO NEWFAIL
haskell-musicbrainz 0.2.4-4 Failed [BUILDDEPS] TODO NEWFAIL
haskell-servant-server 0.7.1-1 Failed [BUILDDEPS] TODO NEWFAIL
haskell-stack 1.1.2-1 Failed [BUILDDEPS] TODO NEWFAIL
haskell-twitter-conduit 0.2.1-1 Failed [BUILDDEPS] TODO NEWFAIL
haskell-wai-app-file-cgi 3.1.0-1 Failed [BUILDDEPS] TODO NEWFAIL
haskell-wai-websockets 3.0.1-1 Failed [BUILDDEPS] TODO NEWFAIL
haskell-yesod 1.4.3-1 Failed [BUILDDEPS] TODO NEWFAIL
haskell-yesod-auth 1.4.13.4-1 Failed [BUILDDEPS] TODO NEWFAIL
haskell-yesod-auth-hashdb 1.5.1.2-1 Failed [BUILDDEPS] TODO NEWFAIL
haskell-yesod-auth-oauth 1.4.0.2-3 Failed [BUILDDEPS] TODO NEWFAIL
haskell-yesod-auth-oauth2 0.2.1-1 Failed [BUILDDEPS] TODO NEWFAIL
haskell-yesod-bin 1.4.18.2-1 Failed [BUILDDEPS] TODO NEWFAIL
haskell-yesod-default 1.2.0-6 Failed [BUILDDEPS] TODO NEWFAIL
haskell-yesod-form 1.4.7.1-1 Failed [BUILDDEPS] TODO NEWFAIL
haskell-yesod-newsfeed 1.6-1 Failed [BUILDDEPS] TODO NEWFAIL
haskell-yesod-persistent 1.4.0.6-1 Failed [BUILDDEPS] TODO NEWFAIL
haskell-yesod-static 1.5.0.3-1 Failed [BUILDDEPS] TODO NEWFAIL
haskell-yesod-test 1.5.2-1 Failed [BUILDDEPS] TODO NEWFAIL
hebcal 3.5-2 Failed [UNKNOWN] #817493 RECHECK
helpviewer.app 0.3-8 Failed [BUILDDEPS] TODO NEWFAIL
hepmc 2.06.09-1 Failed [UNKNOWN] #777901 RECHECK
hg-git 0.8.5-3 Failed [TESTS_FAILURES] #835611
hhvm 3.12.1+dfsg-1 Failed [GCC_ERROR] #812023
highlight.js 8.2+ds-4 Failed [UNKNOWN] #830189  RECHECK
hmat-oss 1.0.4-2 Failed [GCC_ERROR] #831143
horizon 3:9.0.1-2 Failed [PYTHON_TRACEBACK/PYIMPORT/TESTS_FAILURES] #832338
hp-ppd 0.9-0.2 Failed [UNKNOWN] #817495  RECHECK
htmlunit 2.8-1 Failed [UNKNOWN] #730965 RECHECK
httpfs2 0.1.4-1 Failed [GCC_ERROR] #818563 RECHECK
hupnp 1.0.0-1 Failed [GCC_ERROR] #811632
hurd 1:0.8.git20160809-1 Failed [BUILDDEPS] not on amd64 RECHECK RECHECK_VERSION
hyde 0.8.5a1-4 Failed [PYTHON_TRACEBACK] #832878: hyde: FTBFS: urllib2.URLError: <urlopen error [SSL: CERTIFICATE_VERIFY_FAILED] certificate verify failed (_ssl.c:590)> RECHECK
hyperrogue 4.2+dfsg-1 Failed [GCC_ERROR] #811991
ifstat 1.1-8 Failed [UNKNOWN] #817499 RECHECK
ignition-transport 1.3.0-1 Failed [GCC_ERROR] #835429
ii-esu 1.0a.dfsg1-7 Failed [GCC_ERROR/LD_ERROR] #835727: ii-esu: FTBFS: ld: /usr/lib/gcc/x86_64-linux-gnu/6/libgphobos2.a(lt4-curl.o): undefined reference to symbol 'dlclose@@GLIBC_2.2.5'
iisemulator 0.95-3 Failed [UNKNOWN] #817500 RECHECK
ikiwiki 3.20160728 Failed [TESTS_FAILURES] #835612
imagevis3d 3.1.0-4 Failed [GCC_ERROR/LD_ERROR] #835416
imapcopy 1.04-2 Failed [UNKNOWN] #818448 RECHECK
imms 3.1.0~svn301-3.2 Failed [GCC_ERROR] #831101
imview-doc 1.0.1-3 Failed [UNKNOWN] #817502 RECHECK
influxdb 0.13.0+dfsg1-4 Failed [UNKNOWN] #835336
inkscape 0.91-9 Failed [GCC_ERROR] #835716: inkscape: FTBFS: ui/dialog/layer-properties.cpp:149:56: error: call of overloaded 'ptr_fun(<unresolved overloaded function type>)' is ambiguous
inn 1:1.7.2q-44.1 Failed [BUILDDEPS] #779745 RECHECK
insighttoolkit4 4.10.0-dfsg1-2 Failed [GCC_ERROR] #835761: insighttoolkit4: FTBFS: itkTriangleHelperPython.cpp:5836:65: error: no matching function for call to 'itk::TriangleHelper<itk::Point<double, 2u> >::TriangleHelper()'
ion 3.2.1+dfsg-1 Failed [GCC_ERROR] #811582
ipcheck 0.233-1.1 Failed [UNKNOWN] #800289 RECHECK
ipython 2.4.1-1 Failed [PYTHON_TRACEBACK/PYIMPORT] #830369: ipython: FTBFS: ImportError: No module named Crypto  RECHECK
ismrmrd 1.3.2-3 Failed [GCC_ERROR] #835679: ismrmrd: FTBFS: dataset.c:13:18: fatal error: hdf5.h: No such file or directory
isoquery 3.1.0-1 Failed [TESTS_FAILURES] #835775: isoquery: FTBFS: Tests failures
ivtools 1.2.11a1-7 Failed [GCC_ERROR] #835747: ivtools: FTBFS: src/Attribute/attrlist.cc:514:35: error: call of overloaded 'abs(unsigned int)' is ambiguous
jablicator 1.0.1 Failed [UNKNOWN] #817506 RECHECK
jamin 0.97.14~cvs~81203-4 Failed [UNKNOWN] #818390 RECHECK
jasperreports 6.2.2-2 Failed [BUILDDEPS] #835729: jasperreports: FTBFS: build-dependency not installable: libitext-java (>= 2.1.7-11~)
javassist 1:3.20.0-1 Failed [BUILDDEPS] TODO NEWFAIL
jbofihe 0.38-5.1 Failed [UNKNOWN] #800254 RECHECK
jfsutils 1.1.15-2.1 Failed [UNKNOWN] #817508  RECHECK
jitsi 2.5.5313-1 Failed [BUILDDEPS] #831232 RECHECK
jless 382-iso262-3 Failed [UNKNOWN] #828895  RECHECK
jruby 1.7.22-2 Failed [UNKNOWN] #821181  RECHECK
juke 0.7-4 Failed [UNKNOWN] #817510 RECHECK
kadu-mime-tex 2.1-1.1 Failed [BUILDDEPS] #824959 RECHECK
kate 4:16.04.2-1 Failed [UNKNOWN] #835726: kate: FTBFS: dh_install: missing files, aborting
kcollectd 0.9-2.1 Failed [GCC_ERROR] #831129
kcov 25+dfsg-1 Failed [GCC_ERROR/LD_ERROR] #790912  RECHECK
kde-baseapps 4:16.04.3-1 Failed [UNKNOWN] #835683: kde-baseapps: FTBFS: dh_makeshlibs: failing due to earlier errors
kdecoration 4:5.7.0-1 Failed [BUILDDEPS] TODO NEWFAIL
kdepim 4:16.04.3-1 Failed [UNKNOWN] #835738: kdepim: FTBFS: dh_install: missing files, aborting
kdevelop-python 1.7.3-1 Failed [BUILDDEPS] #820186 RECHECK
keyboards-rg 0.2 Failed [UNKNOWN] #817511 RECHECK
kfreebsd-10 10.3~svn300087-1 Failed [UNKNOWN] TODO
kftpgrabber 0.8.99~svn1214766-1 Failed [GCC_ERROR] #811874
kgb-bot 1.33-2 Failed [BUILD_TIMEOUT/TESTS_FAILURES] #834597
khmerconverter 1.4-1.1 Failed [PYTHON_TRACEBACK] #817298 RECHECK
kicad 4.0.2+dfsg1-4 Failed [GCC_ERROR] #834246
kido 0.1.0+dfsg-1 Failed [GCC_ERROR] #835734: kido: FTBFS: FCLCollisionNode.cpp:354:5: error: 'boost' has not been declared
kimwitu 4.6.1-7.1 Failed [UNKNOWN] #829745  RECHECK
kinfocenter 4:5.7.0-1 Failed [BUILDDEPS] TODO NEWFAIL
kiriki 4:16.04.0-1 Failed [UNKNOWN] #835399
kmess 2.0.6.1-3.1 Failed [GCC_ERROR] #831178
kmflcomp 0.9.8-1.1 Failed [UNKNOWN] #817512  RECHECK
kon2 0.3.9b-20 Failed [UNKNOWN] #815605 RECHECK
konsole 4:16.04.2-1 Failed [UNKNOWN] #835753: konsole: FTBFS: dh_install: missing files, aborting
konversation 1.6.2-1 Failed [UNKNOWN] #835580
krfb 4:16.04.0-1 Failed [GCC_ERROR] #831090
kscreenlocker 5.7.0-1 Failed [BUILDDEPS] TODO NEWFAIL
kterm 6.2.0-46.1 Failed [UNKNOWN] #817514 RECHECK
ktp-accounts-kcm 15.08.3-2 Failed [UNKNOWN] #830404: ktp-accounts-kcm: FTBFS: dh_install: missing files, aborting  RECHECK
ktp-call-ui 0.9.0-2 Failed [BUILDDEPS] TODO NEWFAIL
kvirc 4:4.2.0-2 Failed [GCC_ERROR] #811908
kwallet-pam 5.7.1-1 Failed [BUILDDEPS] TODO NEWFAIL
kwayland-integration 5.7.0-1 Failed [BUILDDEPS] TODO NEWFAIL
kwrited 4:5.7.0-1 Failed [BUILDDEPS] TODO NEWFAIL
kyotocabinet 1.2.76-4.1 Failed [GCC_ERROR] #811627
kyototycoon 0.9.56-1 Failed [GCC_ERROR] #811628
kytea 0.4.6+dfsg-2 Failed [GCC_ERROR] #804356 RECHECK
lakai 0.1-1 Failed [UNKNOWN] #817516 RECHECK
lcgdm 1.8.11-1 Failed [UNKNOWN] #835762: lcgdm: FTBFS: sed: -e expression #1, char 71: unknown option to `s'
ldap2dns 0.3.1-3.1 Failed [UNKNOWN] #817522 RECHECK
ledger 3.1.1+dfsg1-1 Failed [GCC_ERROR] #833753
le-dico-de-rene-cougnenc 1.3-2.1 Failed [UNKNOWN] #800206 RECHECK
libapache2-mod-authn-yubikey 1.0-1.1 Failed [UNKNOWN] #725536 RECHECK
libapache2-mod-encoding 20040616-5.2 Failed [UNKNOWN] #817517 RECHECK
libapache-mod-encoding 0.0.20021209-10 Failed [UNKNOWN] #817519 RECHECK
libapache-mod-log-sql 1.100-16.2 Failed [BUILDDEPS] #830362: libapache-mod-log-sql: FTBFS: build-dependency not installable: libmysqlclient15-dev  RECHECK
libapache-mod-removeip 1.0b-5.1 Failed [UNKNOWN] #817521 RECHECK
libaria 2.8.0+repack-1 Failed [GCC_ERROR] #811653
libarray-refelem-perl 1.00-1.1 Failed [UNKNOWN] #817523 RECHECK
libaudio-scrobbler-perl 0.01-2.1 Failed [UNKNOWN] #817524 RECHECK
libavg 1.8.1-2.1 Failed [GCC_ERROR] #811836
libblocksruntime 0.4.1-1 Failed [CLANG_ERROR/CONFIGURE_ERROR] #832015
libbssolv-perl 0.08-1 Failed [BUILDDEPS] TODO NEWFAIL
libcgicc 3.2.9-3 Failed [GCC_ERROR] #811988
libcgi-ssi-parser-perl 0.01-1.1 Failed [UNKNOWN] #817595 RECHECK
libconfig-identity-perl 0.0018-2 Failed [TESTS_FAILURES] #835711: libconfig-identity-perl: FTBFS: Tests failures
libcorelinux 0.4.32-7.4 Failed [UNKNOWN] #800232 RECHECK
libdata-dumpxml-perl 1.06-1 Failed [UNKNOWN] #817596 RECHECK
libdbix-class-perl 0.082840-1 Failed [TESTS_FAILURES] #835731: libdbix-class-perl: FTBFS: Tests failures
libdebian-package-html-perl 0.1-2 Failed [UNKNOWN] #817597 RECHECK
libdist-zilla-plugins-cjm-perl 4.27-1 Failed [TESTS_FAILURES] #834730
libdshconfig 0.20.13-1.1 Failed [UNKNOWN] #817526  RECHECK
libexpect-php5 0.3.1-1 Failed [GCC_ERROR] #755336 RECHECK
libfolia 0.13-2 Failed [GCC_ERROR] #811635
libgda5 5.2.4-1 Failed [GCC_ERROR] #811068  RECHECK
libgd-perl 2.53-2.1 Failed [UNKNOWN] #825629 RECHECK
libgedcom-perl 1.19-2 Failed [TESTS_FAILURES] #795206 RECHECK
libgetopt++ 0.0.2-p22-3.1 Failed [GCC_ERROR] #811593
libgnupg-perl 0.19-1 Failed [TESTS_FAILURES] #834522
libgrip 0.3.8-1 Failed [GCC_ERROR] #789940 RECHECK
libhttp-daemon-ssl-perl 1.04-3 Failed [TESTS_FAILURES] #711628 RECHECK
libical-parser-sax-perl 1.09-3 Failed [UNKNOWN] #806544  RECHECK
libint2 2.1.0-1 Failed [GCC_ERROR] #823803  RECHECK
libjavascript-rpc-perl 0.10-1.2 Failed [UNKNOWN] #817533 RECHECK
libkmfl 0.9.8-1 Failed [UNKNOWN] #817535  RECHECK
libkqueue 2.0.3-1.1 Failed [GCC_ERROR] #831076
liblocale-subcountry-perl 1.66-1 Failed [BUILDDEPS] TODO NEWFAIL
libmail-gnupg-perl 0.22-1 Failed [UNKNOWN] #835075
libmail-verify-perl 0.02-5 Failed [UNKNOWN] #817540 RECHECK
libmateweather 1.14.0-1 Failed [BUILDDEPS] autogen shift RECHECK RECHECK_GUESS
libmath-gsl-perl 0.36-2 Failed [GCC_ERROR] #826192
libmemcache 1.4.0.rc2-1.1 Failed [GCC_ERROR] #811891 RECHECK
libminc 2.3.00-2 Failed [GCC_ERROR] #835400
libmlx4 1.0.6-1 Failed [GCC_ERROR] #819857 RECHECK
libmpc 2:0.1~r475-1 Failed [GCC_ERROR] #816529  RECHECK
libnb-platform18-java 8.1+dfsg1-3 Failed [GCC_ERROR] #835691: libnb-platform18-java: FTBFS: ../../ide/launcher/windows/nblauncher.cpp:429:16: error: could not convert 'false' from 'bool' to 'std::__cxx11::string {aka std::__cxx11::basic_string<char>}'
libnet-finger-perl 1.06-6 Failed [UNKNOWN] #817542 RECHECK
libnet-jifty-perl 0.14-1 Failed [TESTS_FAILURES] #825608 RECHECK
libnet-nbname-perl 0.26-1.1 Failed [UNKNOWN] #817543 RECHECK
libopenraw 0.0.9-3.9 Failed [UNKNOWN] #828896  RECHECK
libosl 0.6.0-3.4 Failed [GCC_ERROR] #811692
libpam-radius-auth 1.3.16-4.4 Failed [UNKNOWN] #817544 RECHECK
libpgp-sign-perl 0.20-3 Failed [TESTS_FAILURES] #835773: libpgp-sign-perl: FTBFS: Tests failures
libpoe-api-peek-perl 2.2000-1 Failed [TESTS_FAILURES] #789381 RECHECK
libppd 2:0.10-7.2 Failed [UNKNOWN] #817545  RECHECK
libproc-syncexec-perl 1.01-1.1 Failed [UNKNOWN] #800304 RECHECK
libqalculate 0.9.7-9.1 Failed [GCC_ERROR] #811862
libreoffice 1:5.2.0-2 Failed [UNKNOWN] TODO NEWFAIL
librevisa 0.0.20130812-2 Failed [UNKNOWN] #830371: librevisa: FTBFS: dh_auto_test: make -j1 check VERBOSE=1 returned exit code 2  RECHECK
libropkg-perl 0.4-1.1 Failed [UNKNOWN] #817549 RECHECK
libsigc++-1.2 1.2.7-2 Failed [UNKNOWN] #817551 RECHECK
libslf4j-java 1.7.21-1 Failed [BUILDDEPS] TODO NEWFAIL
libswe-doc 1.80.00.0001-1 Failed [BUILDDEPS] #783936 RECHECK
libterm-readline-zoid-perl 0.07-2 Failed [UNKNOWN] #817555 RECHECK
libtkx-perl 1.09-1 Failed [TESTS_FAILURES] #824046 RECHECK
libtruth-java 0.7.0-1 Failed [BUILDDEPS] #761544 RECHECK
libtuxcap 1.4.0.dfsg2-2.2 Failed [GCC_ERROR] #811785
libucimf 2.3.8-7 Failed [GCC_ERROR] #822699
libusbtc08 1.7.2-5 Failed [UNKNOWN] #811980
libv8-3.14 3.14.5.8-10 Failed [GCC_ERROR] #831161
libvirt-php 0.5.2~30-g64dca6f-1 Failed [UNKNOWN] #835733: libvirt-php: FTBFS: rm: cannot remove '/<<PKGBUILDDIR>>/debian/php-libvirt-php/etc/php/7.0': No such file or directory
libvisca 1.0.1-1.1 Failed [UNKNOWN] #826671 RECHECK
libweather-com-perl 0.5.3-2 Failed [UNKNOWN] #817558 RECHECK
libwww-indexparser-perl 0.91-1 Failed [UNKNOWN] #817561 RECHECK
libxml-dumper-perl 0.81-1.1 Failed [UNKNOWN] #830410: libxml-dumper-perl: FTBFS: make[1]: *** No rule to make target 'clean'. Stop.  RECHECK
libxml-easyobj-perl 1.12-3 Failed [TESTS_FAILURES] #797289 RECHECK
libxml-validate-perl 1.025-2 Failed [TESTS_FAILURES] #720666 RECHECK
libyaml-libyaml-perl 0.41-6 Failed [BUILDDEPS] TODO NEWFAIL
libzypp 15.3.0-1 Failed [GCC_ERROR] #797867
license-reconcile 0.11 Failed [UNKNOWN] #832840: license-reconcile: FTBFS: dh_auto_test: perl Build test --verbose 1 returned exit code 255 RECHECK
lilypond 2.18.2-4.1 Failed [BUILDDEPS] #746005 RECHECK
linbox 1.3.2-1.1 Failed [BUILDDEPS] #811990 RECHECK
linklint 2.3.5-5 Failed [UNKNOWN] #817566  RECHECK
linthesia 0.4.3-1 Failed [GCC_ERROR] #835117
linuxdcpp 1.1.0-1 Failed [GCC_ERROR] #811868 RECHECK RECHECK_GUESS
linux-signed 1.3 Failed [BUILDDEPS] #826959 RECHECK
litecoin 0.10.4.0-1 Failed [GCC_ERROR] #811917
llvm-toolchain-3.5 1:3.5.2-3 Failed [UNKNOWN] #835764: llvm-toolchain-3.5: FTBFS: make[1]: gcc-6.1: Command not found
llvm-toolchain-3.6 1:3.6.2-3 Failed [UNKNOWN] #835582
llvm-toolchain-3.7 1:3.7.1-2 Failed [UNKNOWN] #835709: llvm-toolchain-3.7: FTBFS: make[1]: gcc-6.1: Command not found
llvm-toolchain-snapshot 1:3.9~svn274438-1 Failed [UNKNOWN] #835783: llvm-toolchain-snapshot: FTBFS: make[1]: gcc-6.1: Command not found
loggerhead 1.19~bzr479+dfsg-1 Failed [BUILDDEPS] #822653 RECHECK
logtools 0.13d Failed [UNKNOWN] #800258 RECHECK
louie 1.1-2 Failed [UNKNOWN] #829181  RECHECK
lpr 1:2008.05.17.1 Failed [UNKNOWN] #817569  RECHECK
lusernet.app 0.4.2-7 Failed [BUILDDEPS] TODO NEWFAIL
lv2-c++-tools 1.0.5-2 Failed [GCC_ERROR/LD_ERROR] #834291
lvtk 1.2.0~dfsg0-1 Failed [GCC_ERROR/LD_ERROR] #834158
lynkeos.app 1.2-7.1 Failed [BUILDDEPS] TODO NEWFAIL
macs 2.1.1.20160309-1 Failed [GCC_ERROR] #835674: macs: FTBFS: MACS2/IO/PeakIO.c:1:2: error: #error Do not use this file, it is the result of a failed Cython compilation.
madison-lite 0.21 Failed [BUILDDEPS] TODO NEWFAIL
magnum 2.0.0-6 Failed [PYTHON_TRACEBACK/PYIMPORT/TESTS_FAILURES] #835100
mahimahi 0.92-1 Failed [GCC_ERROR] #822380 RECHECK
mailavenger 0.8.4-4 Failed [GCC_ERROR] #812137
mail-expire 0.7 Failed [UNKNOWN] #817572 RECHECK
mako 1.0.4+ds1-1 Failed [UNKNOWN] #830178  RECHECK
maloc 0.2-3 Failed [UNKNOWN] #817574  RECHECK
manila-ui 2.1.0-2 Failed [BUILDDEPS] TODO NEWFAIL
mapnik 3.0.11+ds-1 Failed [GCC_ERROR] #833756
mapnik-vector-tile 1.1.2+dfsg-1 Failed [GCC_ERROR/LD_ERROR] #835718: mapnik-vector-tile: FTBFS: ld: /usr/lib/libmapnik.so: undefined reference to symbol '_ZN6icu_5513UnicodeStringC1ERKS0_'
mapsembler2 2.2.3+dfsg-2 Failed [GCC_ERROR/LD_ERROR] #797526 RECHECK
marble 4:16.04.1-3 Failed [UNKNOWN] #835766: marble: FTBFS: dh_makeshlibs: failing due to earlier errors
mat 0.6.1-2 Failed [BUILDDEPS] TODO NEWFAIL
mathcomp 1.5-4 Failed [BUILDDEPS] #832877: mathcomp: FTBFS: build-dependency not installable: libssreflect-coq (>= 1.5) RECHECK
mathgl 2.3.4-1 Failed [GCC_ERROR] #835680: mathgl: FTBFS: complex_io.cpp:32:18: fatal error: hdf5.h: No such file or directory
maxima 5.38.0-3 Failed [UNKNOWN] #831248 RECHECK
mayavi2 4.4.3-2.1 Failed [PYTHON_TRACEBACK] #830342: mayavi2: FTBFS: AttributeError: 'NoneType' object has no attribute 'find'  RECHECK
mcrl2 201409.0-1 Failed [GCC_ERROR] #811860
mediawiki2latex 7.23-1 Failed [BUILDDEPS] TODO NEWFAIL
mendexk 2.6e-3.2 Failed [UNKNOWN] #817579 RECHECK
mercurial 3.9-1 Failed [TESTS_FAILURES] #835730: mercurial: FTBFS: Tests failures
meshlab 1.3.2+dfsg1-2 Failed [GCC_ERROR] #811634
mffm-fftw 1.7-3 Failed [UNKNOWN] #817581 RECHECK
mh-book 200605-1 Failed [UNKNOWN] #817583 RECHECK
midge 0.2.41-2 Failed [UNKNOWN] #817584 RECHECK
mighttpd2 3.3.0-1 Failed [BUILDDEPS] TODO NEWFAIL
milter-greylist 4.5.11-1 Failed [GCC_ERROR/LD_ERROR] #830418: milter-greylist: FTBFS: lex.yy.c:1200: undefined reference to `yywrap'  RECHECK
mini-buildd 1.0.16 Failed [PYTHON_TRACEBACK/PYIMPORT/TESTS_FAILURES] #834683
miniupnpd 1.8.20140523-4 Failed [GCC_ERROR] #818413 RECHECK
minizinc 2.0.13+dfsg1-1 Failed [GCC_ERROR] #830457: minizinc: FTBFS: flatten_internal.hh:240:116: error: 'floor' was not declared in this scope  RECHECK
mldemos 0.5.1-3 Failed [GCC_ERROR] #812032
mlpy 2.2.0~dfsg1-3 Failed [UNKNOWN] #807216 RECHECK
mmpong 0.9.1-3 Failed [UNKNOWN] #811306 RECHECK
mod-gnutls 0.7.5-2 Failed [TESTS_FAILURES] #835770: mod-gnutls: FTBFS: Tests failures
moksha.common 1.2.3-2 Failed [UNKNOWN] #803048 RECHECK
monkeysphere 0.38-1 Failed [UNKNOWN] #835719: monkeysphere: FTBFS: /<<PKGBUILDDIR>>/tests/../src/share/m/subkey_to_ssh_agent: line 123: agent-transfer: command not found
monogame 2.5.1+dfsg-4 Failed [BUILDDEPS] #765120 RECHECK
mopidy-mpris 1.3.1-1 Failed [UNKNOWN] #815739 RECHECK
mozart 1.4.0-8.1 Failed [BUILDDEPS] not on amd64 RECHECK
mozart-stdlib 20060615-6 Failed [BUILDDEPS] not on amd64 RECHECK
mozjs 1.8.5-1.0.0+dfsg-4.5 Failed [GCC_ERROR] #811665
mozo 1.14.0-1 Failed [BUILDDEPS] TODO NEWFAIL
mp3blaster 1:3.2.5-3 Failed [GCC_ERROR] #811790
mp3rename 0.6-9 Failed [UNKNOWN] #800274 RECHECK
mp3report 1.0.2-3 Failed [UNKNOWN] #817588 RECHECK
mpdcon.app 1.1.99-5 Failed [BUILDDEPS] TODO NEWFAIL
mpi-testsuite 3.2+dfsg-1 Failed [GCC_ERROR/LD_ERROR/SEGMENTATION_FAULT/BUILD_TIMEOUT] #831241 RECHECK
mpqc 2.3.1-16.1 Failed [GCC_ERROR] #806081
mricron 0.20140804.1~dfsg.1-1 Failed [UNKNOWN] #813718 RECHECK
mrtrix 0.2.12-2 Failed [GCC_ERROR] #816570
mssh 2.2-1 Failed [GCC_ERROR] #811684
mswatch 1.2.0-2.1 Failed [GCC_ERROR] #811699
muddleftpd 1.3.13.1-4.3 Failed [UNKNOWN] #817590 RECHECK
mugshot 0.2.5-1 Failed [PYTHON_TRACEBACK/PYIMPORT] #811323 RECHECK
murano 1:2.0.1-1 Failed [PYTHON_TRACEBACK/PYIMPORT/TESTS_FAILURES] #835101
murano-dashboard 1:2.0.0-5 Failed [BUILDDEPS] TODO NEWFAIL
muse 2.1.2-1 Failed [GCC_ERROR] #831147
music 1.0.7-1.2 Failed [GCC_ERROR] #811907
mypy 0.4.3-1 Failed [BUILDDEPS] TODO NEWFAIL
myspell 1:3.0+pre3.1-24.1 Failed [UNKNOWN] #817592  RECHECK
nagios-plugin-check-multi 0.26-2 Failed [TESTS_FAILURES] #808737 RECHECK
nam 1.15-3.1 Failed [GCC_ERROR] #811737
nautic 1.5-1.1 Failed [GCC_ERROR] #811740
nbibtex 0.9.18-11 Failed [UNKNOWN] #812704 RECHECK
ncap 1.9.2-2.1 Failed [GCC_ERROR] #811930
ncc 2.8-2 Failed [GCC_ERROR] #811745
ndoutils 1.4b9-1.1 Failed [BUILDDEPS] TODO
nemiver 0.9.6-1 Failed [GCC_ERROR] #822502  RECHECK
netcdf 1:4.4.1-1 Failed [GCC_ERROR] #835710: netcdf: FTBFS: nc4internal.h:18:18: fatal error: hdf5.h: No such file or directory
netexpect 0.22-2 Failed [GCC_ERROR] #804369 RECHECK
netmrg 0.20-7 Failed [BUILDDEPS] #790454 RECHECK
netsed 1.2-2 Failed [TESTS_FAILURES] #831270 RECHECK
netsurf 3.2+dfsg-3 Failed [GCC_ERROR] #812279
nevow 0.14.0-1 Failed [PYTHON_TRACEBACK/TESTS_FAILURES] #834673
newmat 1.10.4-5 Failed [UNKNOWN] #812280
nfstrace 0.4.2-2 Failed [GCC_ERROR] #835644
ng 1.5~beta1-3.1 Failed [UNKNOWN] #817593 RECHECK
ngetty 1.1-3 Failed [GCC_ERROR] #829550  RECHECK
node-ast-util 0.6.0-1 Failed [UNKNOWN] #835704: node-ast-util: FTBFS: Error: Cannot find module './fork'
node-contextify 0.1.6-1 Failed [GCC_ERROR] #802101 RECHECK
node-es6-promise 3.2.2+ds-1 Failed [UNKNOWN] #835581
node-postgres 0.13.3-1 Failed [GCC_ERROR] #802213 RECHECK
node-redis 0.12.1-2 Failed [TESTS_FAILURES] #830215 RECHECK
node-starttls 1.0.1-1 Failed [TESTS_FAILURES] #819715 RECHECK
node-stringprep 0.6.2-2 Failed [GCC_ERROR] #719382 RECHECK
node-xmpp 0.3.2-2 Failed [UNKNOWN] #719401 RECHECK
node-zipfile 0.5.0+ds-1 Failed [GCC_ERROR] #802351 RECHECK
node-zlib 1.0.5-1 Failed [UNKNOWN] #719368 RECHECK
notary 0.1~ds1-1 Failed [UNKNOWN] #835782: notary: FTBFS: dh_auto_build: go install -v -p 1 github.com/docker/notary github.com/docker/notary/client github.com/docker/notary/client/changelist github.com/docker/notary/cmd/notary github.com/docker/notary/cmd/notary-server github.com/docker/notary/cryptoservice github.com/docker/notary/errors github.com/docker/notary/keystoremanager github.com/docker/notary/passphrase github.com/docker/notary/proto github.com/docker/notary/server github.com/docker/notary/server/handlers github.com/docker/notary/server/storage github.com/docker/notary/server/timestamp github.com/docker/notary/signer github.com/docker/notary/signer/api github.com/docker/notary/signer/client github.com/docker/notary/signer/keydbstore github.com/docker/notary/signer/keys github.com/docker/notary/trustmanager github.com/docker/notary/trustmanager/yubikey github.com/docker/notary/tuf github.com/docker/notary/tuf/client github.com/docker/notary/tuf/data github.com/docker/notary/tuf/encrypted github.com/docker/notary/tuf/keys github.com/docker/notary/tuf/signed github.com/docker/notary/tuf/store github.com/docker/notary/tuf/testutils github.com/docker/notary/tuf/utils github.com/docker/notary/utils github.com/docker/notary/version returned exit code 1
ns2 2.35+dfsg-2 Failed [GCC_ERROR] #811808
nut 2.7.4-3 Failed [UNKNOWN] #835703: nut: FTBFS: dh_makeshlibs: failing due to earlier errors
nvidia-texture-tools 2.0.8-1+dfsg-8 Failed [GCC_ERROR] #811612
nzb 0.2-1 Failed [GCC_ERROR] #811727
objcryst-fox 1.9.6.0-2.1 Failed [GCC_ERROR] #811919
obnam 1.19.1-1 Failed [TESTS_FAILURES] #735809
ocamlduce 3.12.1.0-1 Failed [UNKNOWN] #738423 RECHECK
odb 2.4.0-4 Failed [CONFIGURE_ERROR] TODO NEWFAIL
odin 2.0.2-0.3 Failed [GCC_ERROR] #835746: odin: FTBFS: seqgradspiral.cpp:30:71: error: no matching function for call to 'max(double, float)'
odot 1.2.0-1 Failed [UNKNOWN] #817601 RECHECK
oggvideotools 0.8a-7 Failed [GCC_ERROR] #811769
oidua 0.16.1-7 Failed [UNKNOWN] #830392: oidua: FTBFS: dh_clean: Please specify the compatibility level in debian/compat  RECHECK
ola 0.10.2-1 Failed [BUILDDEPS] TODO NEWFAIL
olpc-xo1 0.3 Failed [UNKNOWN] #817602 RECHECK
ompl 1.1.0+ds1-1 Failed [GCC_ERROR] #831074
oneliner-el 0.3.6-7.1 Failed [UNKNOWN] #712321 RECHECK
ooolib-perl 0.1.9-1 Failed [UNKNOWN] #817604 RECHECK
opal 3.10.10~dfsg2-2 Failed [GCC_ERROR] #811835
open-axiom 1.5.0~svn3056+ds-1 Failed [GCC_ERROR] #778041 RECHECK
openbabel 2.3.2+dfsg-2.3 Failed [GCC_ERROR] #834249
opencv 2.4.9.1+dfsg-2 Failed [GCC_ERROR] #828928
opengm 2.3.6+20160131-2 Failed [GCC_ERROR] #811878
open-gram 0.1.22+20131212-1 Failed [UNKNOWN] #834126
open-invaders 0.3-4.1 Failed [GCC_ERROR] #811654
open-iscsi 2.0.873+git1.4c1f2d90-1 Failed [BUILDDEPS] TODO NEWFAIL
openjade1.3 1.3.2-13 Failed [UNKNOWN] #800200  RECHECK
openjade 1.4devel1-21.1 Failed [UNKNOWN] #817606  RECHECK
openjdk-8-jre-dcevm 8u74-1 Failed [GCC_ERROR] #831153
openload 0.1.2-2 Failed [UNKNOWN] #817607 RECHECK
opensurgsim 0.6.0-5 Failed [GCC_ERROR] #831096
openwince-include 0.3.2-3.1 Failed [UNKNOWN] #800192 RECHECK
openwince-jtag 0.5.1-6 Failed [UNKNOWN] #800197 RECHECK
osdsh 0.7.0-10.1 Failed [UNKNOWN] #817610 RECHECK
osmosis 0.45-2 Failed [GCC_ERROR] #835776: osmosis: FTBFS: Fileformat.java:103: error: Blob is not abstract and does not override abstract method dynamicMethod(MethodToInvoke,Object,Object) in GeneratedMessageLite
osptoolkit 4.11.3+dfsg-1 Failed [GCC_ERROR] #830444: osptoolkit: FTBFS: src/osptransapi.c:1041:13: error: non-floating-point argument in call to function '__builtin_isnan'  RECHECK
osspsa 1.2.6-1 Failed [UNKNOWN] #817611 RECHECK
ostinato 0.8-1 Failed [GCC_ERROR] #835435
outguess 1:0.2-7 Failed [UNKNOWN] #817613 RECHECK
packup 0.6-2 Failed [GCC_ERROR] #811793
paje.app 1.98-1 Failed [BUILDDEPS] TODO NEWFAIL
paps 0.6.8-7 Failed [GCC_ERROR] #825787 RECHECK
parcimonie 0.10.2-1 Failed [TESTS_FAILURES] #835774: parcimonie: FTBFS: Tests failures
passepartout 0.7.1-1.1 Failed [GCC_ERROR] #805217 RECHECK
pdal 1.2.0-4 Failed [GCC_ERROR] #835723: pdal: FTBFS: Hdf5Handler.hpp:37:19: fatal error: H5Cpp.h: No such file or directory
pearpc 0.5.dfsg-2.1 Failed [GCC_ERROR] #811946
percona-xtrabackup 2.2.3-2.1 Failed [GCC_ERROR] #811896
perforate 1.2-5 Failed [UNKNOWN] #829187  RECHECK
perlpanel 1:0.9.1+cvs20051225-2 Failed [UNKNOWN] #817616 RECHECK
petris 1.0.1-8 Failed [UNKNOWN] #817617 RECHECK
pgbackrest 1.04-2 Failed [BUILDDEPS] TODO NEWFAIL
phalanx 22+d051004-13.1 Failed [GCC_ERROR] #811584
photoprint 0.4.2~pre2-2.4 Failed [GCC_ERROR] #811806
php-arc 2.2.5-2 Failed [TESTS_FAILURES] #825542 RECHECK
php-crypt-gpg 1.4.1-1 Failed [TESTS_FAILURES] #835592
php-guzzle 3.9.3+dfsg-6 Failed [UNKNOWN] #821698 RECHECK
php-guzzlehttp-ringphp 1.1.0-2 Failed [UNKNOWN] #829059 RECHECK
php-mongo 1.6.10-1 Failed [BUILDDEPS] #819146 RECHECK
php-ps 1.3.7-1 Failed [BUILDDEPS] TODO
php-suhosin 0.9.33-3 Failed [GCC_ERROR] #718145 RECHECK
picard 1.3.2-3 Failed [PYTHON_TRACEBACK/PYIMPORT] #833679
picmi 4:16.04.0-1 Failed [UNKNOWN] #835462
pidgin-hotkeys 0.2.4-1.2 Failed [UNKNOWN] #817618 RECHECK
pike7.8 7.8.866-5 Failed [BUILD_TIMEOUT] TODO NEWFAIL
pinot 1.05-1.1 Failed [GCC_ERROR] #812165
pion 5.0.6+dfsg-1 Failed [GCC_ERROR] #811849
piwi 0.8+20041206-3 Failed [UNKNOWN] #817619 RECHECK
pixbros 0.6.3-2 Failed [BUILDDEPS] #534058  RECHECK
pixfrogger 1.0-4 Failed [BUILDDEPS] not buildable on amd64  RECHECK
pjproject 2.5.1~dfsg-2 Failed [UNKNOWN] #831179
planner 0.14.6-4 Failed [UNKNOWN] #819839 RECHECK
planner-el 3.43~20140112-2 Failed [BUILDDEPS] #754024 RECHECK
plasma-discover 5.7.3-1 Failed [UNKNOWN] #835676: plasma-discover: FTBFS: dh_install: missing files, aborting
plasma-sdk 5.7.0-1 Failed [UNKNOWN] #835687: plasma-sdk: FTBFS: dh_install: missing files, aborting
plasma-widget-adjustableclock 4.1.4-1 Failed [BUILDDEPS] #831238 RECHECK
plasma-widget-yawp 0.4.2-1 Failed [BUILDDEPS] #831281 RECHECK
plasma-workspace-wallpapers 4:5.7.0-1 Failed [BUILDDEPS] TODO NEWFAIL
plopfolio.app 0.1.0-6 Failed [BUILDDEPS] TODO NEWFAIL
plplot 5.10.0+dfsg2-0.3 Failed [TESTS_FAILURES] #835708: plplot: FTBFS: Tests failures
plv8 1:1.4.8.ds-1 Failed [GCC_ERROR] #831190
png-definitive-guide 20060430-1 Failed [UNKNOWN] #817622 RECHECK
pocl 0.13-5 Failed [UNKNOWN] #835690: pocl: FTBFS: dh_makeshlibs: failing due to earlier errors
poc-streamer 0.4.2-3 Failed [UNKNOWN] #817623 RECHECK
poe.app 0.5.1-5 Failed [BUILDDEPS] TODO NEWFAIL
poker-engine 1.3.6-1.2 Failed [UNKNOWN] #821727 RECHECK
poker-eval 138.0-1 Failed [UNKNOWN] #817624 RECHECK
polkit-kde-agent-1 4:5.7.0-1 Failed [BUILDDEPS] TODO NEWFAIL
polygraph 4.3.2-3 Failed [GCC_ERROR] #831125
polyorb 2.11~20140418-3 Failed [BUILDDEPS] #831255 RECHECK
poppassd 1.8.5-4 Failed [UNKNOWN] #817626 RECHECK
popplerkit.framework 0.0.20051227svn-7.1 Failed [BUILDDEPS] TODO NEWFAIL
poster 1:20050907-1 Failed [UNKNOWN] #817627 RECHECK
ppl 1:1.1-7.2 Failed [GCC_ERROR] #811825
pretzel 2.0n-2-0.3 Failed [UNKNOWN] #800198 RECHECK
preview.app 0.8.5-10 Failed [BUILDDEPS] TODO NEWFAIL
price.app 1.1.0-1 Failed [BUILDDEPS] TODO NEWFAIL
projectcenter.app 0.6.1-1 Failed [BUILDDEPS] TODO NEWFAIL
projectl 1.001.dfsg1-8 Failed [GCC_ERROR/LD_ERROR] #835281
proj-ps-doc 4.3.3-4 Failed [UNKNOWN] #817628 RECHECK
proll 18-6 Failed [BUILDDEPS] #810133 RECHECK
prometheus 1.0.1+ds-1 Failed [TESTS_FAILURES] #835741: prometheus: FTBFS: Tests failures
prophet 0.750-1 Failed [TESTS_FAILURES] #720794 RECHECK
prosper 1.00.4+cvs.2007.05.01-4 Failed [UNKNOWN] #817629  RECHECK
psignifit 2.5.6-3 Failed [UNKNOWN] #817631 RECHECK
ptex-base 1:2.5-2.1 Failed [UNKNOWN] #817632 RECHECK
ptex-buildsupport 3.0-3 Failed [UNKNOWN] #817633 RECHECK
ptlib 2.10.11~dfsg-2 Failed [GCC_ERROR] #811996
pulseview 0.2.0-1.1 Failed [GCC_ERROR] #811960
pyabiword 0.8.0-11 Failed [BUILDDEPS] #727084 RECHECK
pycairo 1.8.8-2 Failed [UNKNOWN] #830364: pycairo: FTBFS: /bin/sh: 3: pythonpython2.7-dbg: not found  RECHECK
pycmail 0.1.4 Failed [UNKNOWN] #817636 RECHECK
pycountry 1.8+ds1-0.1 Failed [UNKNOWN] #821892  RECHECK
pyevolve 0.6~rc1+svn398+dfsg-9 Failed [PYTHON_TRACEBACK/TESTS_FAILURES] #835768: pyevolve: FTBFS: Tests failures
pyexcelerator 0.6.4.1-2 Failed [UNKNOWN] #825815 RECHECK
pyfltk 1.3.0-1 Failed [GCC_ERROR] #759824 RECHECK
pyformex 0.8.6-4 Failed [UNKNOWN] #750351 RECHECK
pyg 0.9.8 Failed [UNKNOWN] #713183 RECHECK
pygdchart2 0.beta1-3.6 Failed [UNKNOWN] #817637 RECHECK
pygpgme 0.3-1.1 Failed [PYTHON_TRACEBACK] #835174
pyjunitxml 0.6-1.1 Failed [PYTHON_TRACEBACK/TESTS_FAILURES] #802124 RECHECK
pyode 1.2.0-4+cvs20090320.1 Failed [UNKNOWN] #817638  RECHECK
pypoker-eval 138.0-1.2 Failed [UNKNOWN] #817697 RECHECK
pypuppetdb 0.1.1+git080614-1 Failed [TESTS_FAILURES] #815393 RECHECK
pypy 5.3.1+dfsg-1 Failed [PYTHON_TRACEBACK/BUILD_TIMEOUT] #835772: pypy: FTBFS: E: Build killed with signal TERM after 150 minutes of inactivity
pyqwt3d 0.1.7~cvs20090625-13 Failed [GCC_ERROR] #812138
pysdl2 0.9.3+dfsg2-1 Failed [PYTHON_TRACEBACK/TESTS_FAILURES] #792197 RECHECK
python-aiohttp 0.22.4-1 Failed [BUILD_TIMEOUT] TODO
python-app-catalog-ui 1.0.0-1 Failed [BUILDDEPS] TODO NEWFAIL
python-apt 1.1.0~beta4 Failed [PYTHON_TRACEBACK/TESTS_FAILURES] #835465
python-axolotl 0.1.7-1 Failed [PYTHON_TRACEBACK/PYIMPORT] #835681: python-axolotl: FTBFS: dh_auto_test: pybuild --test -i python{version} -p 2.7 returned exit code 13
python-casacore 2.1.2-1 Failed [SEGMENTATION_FAULT] TODO NEWFAIL
python-cddb 1.4-5.2 Failed [UNKNOWN] #817640  RECHECK
python-ceres 0.10.0~git20150525-1 Failed [PYTHON_TRACEBACK/PYIMPORT] #805297 RECHECK
python-cogent 1.5.3-10 Failed [PYTHON_TRACEBACK/TESTS_FAILURES] #835213
python-django-extensions 1.6.7-3 Failed [PYTHON_TRACEBACK/TESTS_FAILURES] #828665
python-django-feincms 1.11.4-1 Failed [PYTHON_TRACEBACK/TESTS_FAILURES] #828666
python-django-openstack-auth 2.2.1-1 Failed [PYTHON_TRACEBACK/TESTS_FAILURES] #835756: python-django-openstack-auth: FTBFS: Tests failures
python-django-tagging 1:0.4.1-1 Failed [PYTHON_TRACEBACK/TESTS_FAILURES] #828673
python-django-threadedcomments 0.9.0-1 Failed [TESTS_FAILURES] #801935 RECHECK
python-django-treebeard 4.0.1+dfsg-1 Failed [PYIMPORT] #828674
python-django-voting 0.2-1 Failed [PYTHON_TRACEBACK/PYIMPORT/TESTS_FAILURES] #755632 RECHECK
python-enable 4.5.1-2 Failed [GCC_ERROR] #804584 RECHECK
python-expyriment 0.7.0+git34-g55a4e7e-3.1 Failed [PYTHON_TRACEBACK/PYIMPORT] #830381: python-expyriment: FTBFS: ! LaTeX Error: File `iftex.sty' not found.  RECHECK
python-glpk 0.4.52-1.1 Failed [BUILDDEPS] #750228 RECHECK
python-jedi 0.9.0-1 Failed [PYTHON_TRACEBACK/PYIMPORT] #830399: python-jedi: FTBFS: dh_auto_test: pybuild --test -i python{version} -p 2.7 returned exit code 13  RECHECK
python-libpcap 0.6.4-1 Failed [GCC_ERROR] #804429 RECHECK
python-memory-profiler 0.31+git20141019-1 Failed [PYTHON_TRACEBACK/PYIMPORT] #804442 RECHECK
python-mhash 1.4-1.1 Failed [UNKNOWN] #828936  RECHECK
python-mzml 0.7.4-dfsg-3 Failed [UNKNOWN] #830331
python-netlib 0.15.1-2 Failed [PYTHON_TRACEBACK] #835725: python-netlib: FTBFS: dh_auto_test: pybuild --test --test-pytest -i python{version} -p 2.7 returned exit code 13
python-oauth2client 3.0.0-1 Failed [PYTHON_TRACEBACK/TESTS_FAILURES] #835700: python-oauth2client: FTBFS: Tests failures
python-pgmagick 0.6.2-1 Failed [GCC_ERROR] #835722: python-pgmagick: FTBFS: ./src/_Image.cpp:68:116: error: no matching function for call to 'boost::python::class_<Magick::Image>::def(const char [18], <unresolved overloaded function type>, {anonymous}::Magick_Image_adaptiveThreshold_overloads_2_3)'
python-pqueue 0.2-7.2 Failed [UNKNOWN] #817644 RECHECK
python-protobuf.socketrpc 1.3.2-3 Failed [PYTHON_TRACEBACK] #835694: python-protobuf.socketrpc: FTBFS: dh_auto_test: pybuild --test -i python{version} -p 2.7 returned exit code 13
python-pytc 0.8-2 Failed [UNKNOWN] #827832  RECHECK
python-qrcode 5.0.1-1.1 Failed [BUILDDEPS] TODO NEWFAIL
python-riemann-client 6.3.0-1 Failed [PYTHON_TRACEBACK] #835688: python-riemann-client: FTBFS: dh_auto_test: pybuild --test -i python{version} -p 2.7 returned exit code 13
python-socketpool 0.5.3-2 Failed [PYTHON_TRACEBACK] #835682: python-socketpool: FTBFS: UnicodeDecodeError: 'ascii' codec can't decode byte 0xc3 in position 3249: ordinal not in range(128)
python-tackerclient 0.4.0-1 Failed [BUILDDEPS] TODO NEWFAIL
python-tcpwrap 0.2-2.2 Failed [UNKNOWN] #817639 RECHECK
python-tidylib 0.2.4~dfsg-2 Failed [UNKNOWN] #828900  RECHECK
python-traits 4.5.0-1 Failed [PYTHON_TRACEBACK] #830377: python-traits: FTBFS: dh_auto_test: pybuild --test -i python{version} -p 2.7 returned exit code 13  RECHECK
python-websockets 3.0-1 Failed [PYTHON_TRACEBACK] #829726  RECHECK
python-whoosh 2.7.0-1 Failed [PYTHON_TRACEBACK] #812768 RECHECK
pytone 3.0.0-1.1 Failed [UNKNOWN] #817641 RECHECK
pyviennacl 1.0.2+dfsg-1 Failed [GCC_ERROR] #813083 RECHECK
pyvows 2.1.0-1 Failed [PYTHON_TRACEBACK/TESTS_FAILURES] #828815
pyzmq 15.2.0-1 Failed [GCC_ERROR/LD_ERROR] #818265
qct 1.7-3 Failed [PYTHON_TRACEBACK] #827165 RECHECK
qd 2.3.11.dfsg-2.3 Failed [GCC_ERROR] #818542 RECHECK
qemu-launcher 1.7.4-1 Failed [UNKNOWN] #817305 RECHECK
qingy 0.9.7-2 Failed [UNKNOWN] #817643
qmc 0.94-3 Failed [UNKNOWN] #817645 RECHECK
qmmp 1.0.5-1.1 Failed [GCC_ERROR] #835079
qpid-cpp 0.16-9 Failed [GCC_ERROR] #811302 RECHECK RECHECK_GUESS
qqwing 1.3.4-1 Failed [UNKNOWN] #811981
qt4-perl 4.8.4-1.2 Failed [GCC_ERROR] #811672
qterm 1:0.5.12-1.1 Failed [GCC_ERROR] #831093
qtwebkit 2.3.4.dfsg-8.1 Failed [UNKNOWN] #812160
quickfix 1.13.3+dfsg-9 Failed [UNKNOWN] #831128
qwt 6.1.2-5.2 Failed [UNKNOWN] #835755: qwt: FTBFS: dh_makeshlibs: failing due to earlier errors
qwtplot3d 0.2.7+svn191-10 Failed [UNKNOWN] #811986  RECHECK
ragel 6.9-1 Failed [GCC_ERROR] #811741
raincat 1.1.1.2-3 Failed [BUILDDEPS] TODO NEWFAIL
rat 4.2.22-2.2 Failed [UNKNOWN] #817648 RECHECK
rate4site 3.0.0-3 Failed [BUILDDEPS] TODO NEWFAIL
rcs-blame 1.3.1-4 Failed [GCC_ERROR/LD_ERROR] #778101 RECHECK
rdkit 201503-3 Failed [UNKNOWN] #831264 RECHECK
re 0.1-6 Failed [GCC_ERROR] #811750
redet 8.26-1.1 Failed [UNKNOWN] #817649 RECHECK
refcard 9.0.1 Failed [BUILDDEPS] TODO
refdb 1.0.2-3 Failed [UNKNOWN] #823546 RECHECK
refind 0.10.3-1 Failed [GCC_ERROR] #831258 RECHECK
remctl 3.12-1 Failed [UNKNOWN] #835677: remctl: FTBFS: dh_auto_test: make -j1 check VERBOSE=1 returned exit code 2
renaissance 0.9.0-4 Failed [BUILDDEPS] TODO NEWFAIL
repsnapper 2.4a0-1 Failed [GCC_ERROR] #831081
request-tracker4 4.2.12-6 Failed [TESTS_FAILURES] #835536
rlpr 2.05-4 Failed [UNKNOWN] #817653 RECHECK
rnc-mode 1.0b3-1 Failed [UNKNOWN] #817654 RECHECK
roboptim-core 2.0-7.1 Failed [GCC_ERROR] #808455 RECHECK RECHECK_GUESS
rocs 4:16.04.1-1 Failed [UNKNOWN] #835282
root-tail 1.2-3 Failed [UNKNOWN] #817656 RECHECK
ros-actionlib 1.11.6-2 Failed [UNKNOWN] #835696: ros-actionlib: FTBFS: cmake errors
ros-bond-core 1.7.17-2 Failed [UNKNOWN] #835739: ros-bond-core: FTBFS: cmake errors
ros-common-msgs 1.12.4-3 Failed [UNKNOWN] #835573
ros-geometry 1.11.8-1 Failed [UNKNOWN] #835751: ros-geometry: FTBFS: cmake errors
ros-geometry-experimental 0.5.13-3 Failed [UNKNOWN] #835140
ros-image-common 1.11.10-5 Failed [UNKNOWN] #835689: ros-image-common: FTBFS: cmake errors
ros-navigation-msgs 1.13.0-3 Failed [UNKNOWN] #835574
ros-pcl-msgs 0.2.0-4 Failed [UNKNOWN] #835575
ros-robot-model 1.12.3-1 Failed [GCC_ERROR] #834981
ros-ros-comm-msgs 1.11.2-3 Failed [UNKNOWN] #835576
ros-rviz 1.12.1+dfsg-1 Failed [GCC_ERROR] #835609
ros-vision-opencv 1.11.11+ds-3 Failed [UNKNOWN] #835745: ros-vision-opencv: FTBFS: cmake errors
routeplanner 0.19+nmu1 Failed [UNKNOWN] #817657 RECHECK
rsrce 0.2.2 Failed [UNKNOWN] #817659 RECHECK
rss2irc 1.0.6-3 Failed [BUILDDEPS] #797283 RECHECK
rt-app 0.2~alpha2.20140716-2.2 Failed [GCC_ERROR] #821080 RECHECK
ruby-active-model-serializers 0.9.4-1 Failed [BUILDDEPS] TODO NEWFAIL
ruby-activerecord-deprecated-finders 1.0.4-1 Failed [RUBY_TEST_FAILED] #835749: ruby-activerecord-deprecated-finders: FTBFS: ERROR: Test "ruby2.3" failed.
ruby-appraisal 0.5.1-1 Failed [BUILDDEPS] TODO NEWFAIL
ruby-autoprefixer-rails 6.3.3.1-1 Failed [BUILDDEPS] TODO NEWFAIL
ruby-bluecloth 2.2.0-6 Failed [RUBY_TEST_FAILED] #822506  RECHECK
ruby-crb-blast 0.6.4-1 Failed [RUBY_TEST_FAILED] #822702 RECHECK
ruby-devise 4.1.1-2 Failed [BUILDDEPS] TODO NEWFAIL
ruby-eventmachine 1.0.7-3 Failed [BUILD_TIMEOUT] #831244
ruby-js-routes 1.2.4-2 Failed [BUILDDEPS] TODO NEWFAIL
ruby-mini-magick 4.4.0-1 Failed [RUBY_TEST_FAILED] #835078
ruby-oauth2 1.2.0-1 Failed [RUBY_TEST_FAILED] #835693: ruby-oauth2: FTBFS: ERROR: Test "ruby2.3" failed: Failure/Error: expect { subject.header('get', 'this-is-not-valid') }.to raise_error(ArgumentError)
ruby-rails-autolink 1.1.6-1 Failed [RUBY_TEST_FAILED] #808517  RECHECK
rumor 1.0.5-2 Failed [GCC_ERROR] #831185
safecat 1.13-2 Failed [UNKNOWN] #835713: safecat: FTBFS: sed: -e expression #1, char 43: unknown option to `s'
sagan 1.0.1-0.3 Failed [CONFIGURE_ERROR] #835763: sagan: FTBFS: configure: error: Package requirements (lognorm >= 1.0.0) were not met
sahara-dashboard 4.0.0-1 Failed [BUILDDEPS] TODO NEWFAIL
salmon 0.4.2+ds1-3 Failed [GCC_ERROR] #835720: salmon: FTBFS: BAMQueue.tpp:88:29: error: no matching function for call to 'spdlog::logger::warn()'
sapphire 0.15.8-9 Failed [UNKNOWN] #817306 RECHECK
sawfish-merlin-ugliness 1.3.1-1 Failed [UNKNOWN] #800278 RECHECK
scalapack-doc 1.5-10 Failed [UNKNOWN] #829420  RECHECK
scanlogd 2.2.5-3.2 Failed [UNKNOWN] #827810  RECHECK
scheme2c 2012.10.14-1 Failed [UNKNOWN] #778111 RECHECK
scheme9 2015.11.19-1 Failed [BUILDDEPS] TODO NEWFAIL
scim-kmfl-imengine 0.9.8-1.1 Failed [UNKNOWN] #817661  RECHECK
scim-unikey 0.3.1+debian-3.1 Failed [GCC_ERROR] #831158
sciplot 1.36-16 Failed [UNKNOWN] #830363: sciplot: FTBFS: dh_install: missing files, aborting  RECHECK
scmxx 0.9.0-2.3 Failed [UNKNOWN] #817662 RECHECK
sd 0.75-1 Failed [TESTS_FAILURES] #713493 RECHECK
sdate 0.4 Failed [UNKNOWN] #818443 RECHECK
sdformat 4.1.0-1 Failed [GCC_ERROR] #834982
seaborn 0.6.0-1 Failed [PYTHON_TRACEBACK/TESTS_FAILURES] #802412 RECHECK
seahorse-nautilus 3.11.92-1 Failed [GCC_ERROR] #835675: seahorse-nautilus: FTBFS: conftest.c:11:28: fatal error: ac_nonexistent.h: No such file or directory
search-ccsb 0.5-3 Failed [UNKNOWN] #817665 RECHECK
search-citeseer 0.3-1 Failed [UNKNOWN] #815610 RECHECK
sensors-applet 3.0.0+git5-0.1 Failed [UNKNOWN] #803059 RECHECK
sentinella 0.9.2-5 Failed [BUILDDEPS] #797942 RECHECK
seq24 0.9.3-1 Failed [GCC_ERROR] #822394 RECHECK
shelxle 1.0.748-1 Failed [GCC_ERROR] #811906
shogun 3.2.0-7.3 Failed [GCC_ERROR] #809290 RECHECK
signond 8.57+20150423-3 Failed [UNKNOWN] #827811  RECHECK
sigviewer 0.5.1+svn556-4 Failed [GCC_ERROR] #812028
sigx 2.0.2-5 Failed [GCC_ERROR] #811325 RECHECK
simba 0.8.4-4.2 Failed [UNKNOWN] #759979 RECHECK
simpleparse 2.1.0a1-7 Failed [PYTHON_TRACEBACK/PYIMPORT] #824738  RECHECK
sineshaper 0.4.2-8 Failed [GCC_ERROR] #805683 RECHECK
sipsak 0.9.6-2.3 Failed [UNKNOWN] #817669 RECHECK
sipxtapi 3.3.0~test17-1 Failed [GCC_ERROR] #811725
sixer 1.6-1 Failed [UNKNOWN] #834743
slic3r 1.2.9+dfsg-3 Failed [GCC_ERROR] #811700
slmon 0.5.13-2.3 Failed [UNKNOWN] #817670 RECHECK
slt 0.0.git20140301-1 Failed [BUILDDEPS] #832850: slt: FTBFS: build-dependency not installable: golang-goyaml-dev RECHECK
smokeqt 4:4.14.3-1 Failed [GCC_ERROR] #812002
smpeg 0.4.5+cvs20030824-7.1 Failed [GCC_ERROR] #811742
snapd 2.0.8+1 Failed [BUILDDEPS] #832876: snapd: FTBFS: build-dependency not installable: golang-pb-dev RECHECK
sndobj 2.6.6.1-5 Failed [GCC_ERROR] #811743
socnetv 1.9-1.1 Failed [GCC_ERROR] #831085
sogo 2.2.17a-1.1 Failed [UNKNOWN] #827812 RECHECK
solarwolf 1.5-2.1 Failed [UNKNOWN] #817672 RECHECK
sooperlooper 1.7.3~dfsg0-2 Failed [GCC_ERROR] #819790 RECHECK
sorl-thumbnail 12.3-3 Failed [TESTS_FAILURES] #834678
sosi2osm 1.0.0-2 Failed [GCC_ERROR] #835717: sosi2osm: FTBFS: node.cpp:54:31: error: 'max' was not declared in this scope
spacearyarya 1.0.2-7 Failed [UNKNOWN] #817674  RECHECK
spdlog 1.8-1 Failed [BUILDDEPS] TODO NEWFAIL
sredird 2.2.1-1.1 Failed [UNKNOWN] #817677 RECHECK
ssm 1.3-2.1 Failed [UNKNOWN] #811973
ssreflect 1.5-3 Failed [UNKNOWN] #813820 RECHECK
stardict 3.0.1-9.2 Failed [GCC_ERROR] #805236 RECHECK
starplot 0.95.5-8.1 Failed [GCC_ERROR] #811655
statserial 1.1-22 Failed [UNKNOWN] #817679 RECHECK
steptalk 0.10.0-6 Failed [BUILDDEPS] TODO NEWFAIL
stopmotion 0.8.1-1 Failed [GCC_ERROR] #800059
strigi 0.7.8-2.2 Failed [GCC_ERROR] #828927
suede 0.2.5-1 Failed [UNKNOWN] #817682 RECHECK
supercollider-sc3-plugins 3.7.1~repack-1 Failed [GCC_ERROR] #831078
surefire 2.17-2 Failed [BUILDDEPS] TODO NEWFAIL
sushi 1.4.0+dfsg-1.1 Failed [GCC_ERROR] #811889 RECHECK
svgwrite 1.1.8-1 Failed [PYTHON_TRACEBACK/PYIMPORT] #829415 RECHECK
sweethome3d-furniture-editor 1.15-1 Failed [GCC_ERROR] #830428: sweethome3d-furniture-editor: FTBFS: [javac] /«PKGBUILDDIR»/src/com/eteks/furniturelibraryeditor/swing/FurniturePanel.java:900: error: cannot access Localizable  RECHECK
swift-im 2.0+dev6-1 Failed [GCC_ERROR] #797279 RECHECK
swiginac 1.5.1.1-2 Failed [GCC_ERROR] #829173  RECHECK
swish++ 6.1.5-3 Failed [UNKNOWN] #817683 RECHECK
sword 1.7.3+dfsg-7 Failed [GCC_ERROR] #811602
symfony 2.8.7+dfsg-1 Failed [TESTS_FAILURES] #832858: symfony: FTBFS: Tests failures RECHECK
synaptic 0.83 Failed [GCC_ERROR] #831268 RECHECK
syncthing 0.14.4+dfsg1-1 Failed [UNKNOWN] #835684: syncthing: FTBFS: dh_auto_test: go test -v -p 1 github.com/syncthing/syncthing/cmd/stbench github.com/syncthing/syncthing/cmd/stcompdirs github.com/syncthing/syncthing/cmd/stdisco github.com/syncthing/syncthing/cmd/stdiscosrv github.com/syncthing/syncthing/cmd/stevents github.com/syncthing/syncthing/cmd/stfileinfo github.com/syncthing/syncthing/cmd/stfinddevice github.com/syncthing/syncthing/cmd/stgenfiles github.com/syncthing/syncthing/cmd/stindex github.com/syncthing/syncthing/cmd/strelaysrv github.com/syncthing/syncthing/cmd/strelaysrv/testutil github.com/syncthing/syncthing/cmd/stsigtool github.com/syncthing/syncthing/cmd/stvanity github.com/syncthing/syncthing/cmd/stwatchfile github.com/syncthing/syncthing/cmd/syncthing github.com/syncthing/syncthing/lib/auto github.com/syncthing/syncthing/lib/beacon github.com/syncthing/syncthing/lib/config github.com/syncthing/syncthing/lib/connections github.com/syncthing/syncthing/lib/db github.com/syncthing/syncthing/lib/dialer github.com/syncthing/syncthing/lib/discover github.com/syncthing/syncthing/lib/events github.com/syncthing/syncthing/lib/fs github.com/syncthing/syncthing/lib/ignore github.com/syncthing/syncthing/lib/logger github.com/syncthing/syncthing/lib/model github.com/syncthing/syncthing/lib/nat github.com/syncthing/syncthing/lib/osutil github.com/syncthing/syncthing/lib/pmp github.com/syncthing/syncthing/lib/protocol github.com/syncthing/syncthing/lib/rand github.com/syncthing/syncthing/lib/rc github.com/syncthing/syncthing/lib/relay/client github.com/syncthing/syncthing/lib/relay/protocol github.com/syncthing/syncthing/lib/scanner github.com/syncthing/syncthing/lib/signature github.com/syncthing/syncthing/lib/stats github.com/syncthing/syncthing/lib/symlinks github.com/syncthing/syncthing/lib/sync github.com/syncthing/syncthing/lib/tlsutil github.com/syncthing/syncthing/lib/upgrade github.com/syncthing/syncthing/lib/upnp github.com/syncthing/syncthing/lib/util github.com/syncthing/syncthing/lib/versioner returned exit code 1
synergy 1.4.16-1 Failed [SEGMENTATION_FAULT/TESTS_FAILURES] #812303
syrep 0.9-4.2 Failed [UNKNOWN] #817684 RECHECK
sysbench 0.4.12-1.1 Failed [BUILDDEPS] TODO
systempreferences.app 1.2.0-2 Failed [BUILDDEPS] TODO NEWFAIL
tagcoll2 2.0.14-1 Failed [GCC_ERROR] #811863
talksoup.app 1.0alpha-32-g55b4d4e-2 Failed [BUILDDEPS] TODO NEWFAIL
tamil-gtk2im 2.2-4.5 Failed [UNKNOWN] #817685 RECHECK
tcm 2.20+TSQD-4.4 Failed [UNKNOWN] #817686 RECHECK
tcpcopy 0.6.3-2.1 Failed [GCC_ERROR] #835591
tcplay 1.1-2 Failed [GCC_ERROR/LD_ERROR] #796298 RECHECK
tcpwatch-httpproxy 1.3.1-1 Failed [PYTHON_TRACEBACK/PYIMPORT] #835701: tcpwatch-httpproxy: FTBFS: ImportError: No module named setuptools
tdfsb 0.0.10-1.1 Failed [UNKNOWN] #817687 RECHECK
telepathy-haze 0.8.0-2 Failed [GCC_ERROR] #824739  RECHECK
telepathy-logger-qt 15.04.0-1 Failed [UNKNOWN] #811971
telepathy-python 0.15.19-2.1 Failed [UNKNOWN] #832865: telepathy-python: FTBFS: will not overwrite just-created '/«PKGBUILDDIR»/debian/python-telepathy//usr/lib/python2.7/dist-packages/telepathy/_generated/errors.py' with '_generated/errors.py' RECHECK
templayer 1.5.1-2 Failed [UNKNOWN] #830350: templayer: FTBFS: chmod: cannot access 'debian/python-templayer/usr/lib/python*/site-packages/templayer.py': No such file or directory  RECHECK
terminal.app 0.9.8-1+nmu1 Failed [BUILDDEPS] TODO NEWFAIL
tessa 0.3.1-6.1 Failed [UNKNOWN] #817690 RECHECK
textedit.app 4.0+20061029-3.4 Failed [BUILDDEPS] #817691  RECHECK RECHECK_GUESS
timemon.app 4.1-3 Failed [BUILDDEPS] TODO NEWFAIL
tk-brief 5.9-1.1 Failed [UNKNOWN] #733433 RECHECK
tora 2.1.3-2 Failed [GCC_ERROR] #811663
torch3 3.1-2.1 Failed [UNKNOWN] #817698  RECHECK
torus-trooper 0.22.dfsg1-10 Failed [GCC_ERROR] #835712: torus-trooper: FTBFS: src/abagames/tt/shape.d:442:48: error: std.math.fabs called with argument types (int) matches both:
toulbar2 0.9.8-1 Failed [GCC_ERROR] #831148
tpb 0.6.4-8 Failed [UNKNOWN] #830376: tpb: FTBFS: dpkg-buildpackage: error: dpkg-source -b tpb-0.6.4 gave error exit status 2  RECHECK
tpm-tools 1.3.8-2 Failed [GCC_ERROR] #811576
trackballs 1.1.4-4.2 Failed [GCC_ERROR] #831119
travis 151107-1 Failed [GCC_ERROR] #831114
trivial-features 0.6-1 Failed [UNKNOWN] #821786  RECHECK
trove-dashboard 6.0.0-1 Failed [BUILDDEPS] TODO NEWFAIL
tse3 0.3.1-4.3 Failed [UNKNOWN] #817699 RECHECK
tsocks 1.8beta5-9.4 Failed [UNKNOWN] #815611 RECHECK
tvtime 1.0.2-14 Failed [GCC_ERROR] #811894
txaws 0.2.3-1 Failed [PYTHON_TRACEBACK/TESTS_FAILURES] #807347 RECHECK
ucimf-openvanilla 2.10.11-2 Failed [GCC_ERROR] #811945
uclmmbase 1.2.16.0-1 Failed [UNKNOWN] #817704 RECHECK
ucommon 7.0.0-6 Failed [UNKNOWN] #831211
ucto 0.8.0-2 Failed [GCC_ERROR/LD_ERROR] #833714
umbrello 4:16.04.2-1 Failed [UNKNOWN] #835705: umbrello: FTBFS: dh_install: missing files, aborting
underscore.logger 0.3.0~20111114-1 Failed [GCC_ERROR] #669541 RECHECK
undertaker 1.6.1-2 Failed [GCC_ERROR] #833780
unittest++ 1.4.0-3 Failed [UNKNOWN] #812270
urdfdom 0.4.1-1 Failed [UNKNOWN] #835284
utopia-documents 2.4.4-2.1 Failed [BUILDDEPS] #804807 RECHECK
uwsgi 2.0.12-7 Failed [UNKNOWN] #828785  RECHECK
varnish-agent 2.2~git20130708-1 Failed [UNKNOWN] #724479 RECHECK
vdk2 2.4.0-5.3 Failed [UNKNOWN] #817712  RECHECK
vdk2-tutorial 1.1-3 Failed [UNKNOWN] #817713 RECHECK
vdk-doc 1.2.4-4 Failed [UNKNOWN] #817714 RECHECK
vdr-plugin-vcd 0.9-25 Failed [GCC_ERROR] #812025
verbiste 0.1.43-1 Failed [GCC_ERROR] #828800  RECHECK
viewpdf.app 1:0.2dfsg1-5 Failed [BUILDDEPS] TODO NEWFAIL
visolate 2.1.6~svn8+dfsg1-1 Failed [GCC_ERROR] #791866 RECHECK
vmmlib 1.0-2 Failed [GCC_ERROR] #834472
vnc4 4.1.1+X4.3.0-39 Failed [GCC_ERROR] #811783
volumecontrol.app 0.5-4 Failed [BUILDDEPS] TODO NEWFAIL
vtgrab 0.1.8-3 Failed [UNKNOWN] #817717 RECHECK
vxl 1.17.0.dfsg2-4 Failed [GCC_ERROR] #831126
wayv 0.3-5 Failed [UNKNOWN] #817718 RECHECK
weathermap4rrd 1.1.999+1.2rc3-2 Failed [UNKNOWN] #817719 RECHECK
webcamd 0.7.6-5 Failed [UNKNOWN] #817720 RECHECK
whereami 0.3.34-0.3 Failed [UNKNOWN] #817722 RECHECK
why 2.34-4 Failed [BUILDDEPS] #815684 RECHECK
wmix 3.1-5 Failed [UNKNOWN] #817723 RECHECK
wmressel 0.8-5.1 Failed [UNKNOWN] #817724 RECHECK
wmxres 1.2-10 Failed [UNKNOWN] #817726 RECHECK
wolfssl 3.4.8+dfsg-1 Failed [UNKNOWN] #793134 RECHECK
wrapperfactory.app 0.1.0-4 Failed [BUILDDEPS] TODO NEWFAIL
wsjt 9.7.r3639+dfsg-1.1 Failed [CLANG_ERROR] #804672 RECHECK
wysihtml 0.13-5.2 Failed [UNKNOWN] #817729 RECHECK
xbase64 3.1.2-6 Failed [GCC_ERROR] #811846
xen 4.6.0-1+nmu2 Failed [GCC_ERROR] #812166
xevil 2.02r2-10 Failed [GCC_ERROR] #831104
xfonts-wqy 1.0.0~rc1-1 Failed [UNKNOWN] #808850  RECHECK
xfsprogs 4.3.0+nmu1 Failed [GCC_ERROR] #822369  RECHECK
xipmsg 0.8088-2.1 Failed [UNKNOWN] #817732 RECHECK
xkbset 0.5-5.1 Failed [UNKNOWN] #817733 RECHECK
xmacro 0.3pre-20000911-6 Failed [GCC_ERROR] #831195
xmlstarlet 1.6.1-1 Failed [UNKNOWN] #832864: xmlstarlet: FTBFS: dh_auto_test: make -j1 check VERBOSE=1 returned exit code 2 RECHECK
xmobar 0.24-1 Failed [BUILDDEPS] TODO NEWFAIL
xpilot-extra 4.7.2+nmu1 Failed [UNKNOWN] #817735 RECHECK
xsok 1.02-17 Failed [UNKNOWN] #817738 RECHECK
xtables-addons 2.11-1 Failed [UNKNOWN] #835724: xtables-addons: FTBFS: dh_install: missing files, aborting
xtell 2.10.7 Failed [UNKNOWN] #817739 RECHECK
xview 3.2p1.4-28.1 Failed [GCC_ERROR] #818821  RECHECK
yahoo2mbox 0.24-1 Failed [UNKNOWN] #817741 RECHECK
yapps2 2.1.1-17.3 Failed [UNKNOWN] #817771  RECHECK
yaret 2.1.0-5 Failed [UNKNOWN] #817742 RECHECK
yasat 839-1 Failed [TESTS_FAILURES] #832841: yasat: FTBFS: Tests failures RECHECK
yate 5.4.0-1-1 Failed [GCC_ERROR] #811649
yi 0.12.6-1 Failed [BUILDDEPS] TODO NEWFAIL
yosys 0.6-6 Failed [UNKNOWN] #835678: yosys: FTBFS: latex errors
yowsup 2.4.103-3 Failed [UNKNOWN] #835697: yowsup: FTBFS: dh_auto_test: pybuild --test -i python{version} -p 2.7 returned exit code 13
z3 4.4.1-0.2 Failed [GCC_ERROR] #835743: z3: FTBFS: ../src/util/mpz.cpp:137:8: error: call of overloaded 'set(mpz&, long unsigned int)' is ambiguous
zemberek-ooo 1.0~rc2-10.4 Failed [UNKNOWN] #802416 RECHECK
zeroc-icee 1.2.0-6.2 Failed [UNKNOWN] #817743 RECHECK
zeroc-icee-java 1.2.0-3 Failed [UNKNOWN] #817744 RECHECK
zeroc-icee-translators 1.2.0-6.1 Failed [UNKNOWN] #817745 RECHECK
zipper.app 1.5-1 Failed [BUILDDEPS] TODO NEWFAIL
zivot 20013101-3 Failed [UNKNOWN] #817747 RECHECK
zthreads 2.3.2-7.2 Failed [GCC_ERROR] #812027
