gnuradio 3.0.4-1 Failed 1558.951091s NO_SUCH_FILE TODO
gnutls13 1.7.19-1 Failed 362.212355s NO_SUCH_FILE TODO
gsl 1.9-5 Failed 1131.754726s NO_SUCH_FILE TODO
jpegpixi 1.1.1-3 Failed 80.229087s NO_SUCH_FILE TODO
lablgtk2-doc 2.4.0v0.2tv-7 Failed 290.52936s NO_SUCH_FILE TODO
libdata-random-perl 0.05-2 Failed 146.18279s NO_SUCH_FILE TODO
soundtouch 1.3.0-2.1 Failed 150.090819s NO_SUCH_FILE TODO
spell 1.0-18 Failed 79.274428s NO_SUCH_FILE TODO
valgrind 1:3.2.3-3 Failed 239.981146s NO_SUCH_FILE TODO
